Date,PM10
2007-01-02,9.0
2007-01-03,20.0
2007-01-04,39.0
2007-01-05,25.0
2007-01-06,30.0
2007-01-07,36.0
2007-01-08,43.0
2007-01-09,27.0
2007-01-10,27.0
2007-01-11,51.0
2007-01-12,34.0
2007-01-13,47.0
2007-01-14,54.0
2007-01-15,47.0
2007-01-16,63.0
2007-01-17,60.0
2007-01-18,42.0
2007-01-19,36.0
2007-01-20,28.0
2007-01-21,26.0
2007-01-22,41.0
2007-01-23,18.0
2007-01-24,13.0
2007-01-25,30.0
2007-01-26,35.0
2007-01-27,35.0
2007-01-28,40.0
2007-01-29,38.0
2007-01-30,48.0
2007-01-31,62.0
2007-02-01,39.0
2007-02-02,52.0
2007-02-03,55.0
2007-02-04,40.0
2007-02-05,60.0
2007-02-06,50.0
2007-02-07,29.0
2007-02-08,14.0
2007-02-09,38.0
2007-02-10,31.0
2007-02-11,24.0
2007-02-12,10.0
2007-02-13,17.0
2007-02-14,28.0
2007-02-15,19.0
2007-02-16,39.0
2007-02-17,54.0
2007-02-18,63.0
2007-02-19,60.0
2007-02-20,62.0
2007-02-21,70.0
2007-02-22,56.0
2007-02-23,43.0
2007-02-24,17.0
2007-02-25,8.0
2007-02-26,8.0
2007-02-27,20.0
2007-02-28,24.0
2007-03-01,18.0
2007-03-02,12.0
2007-03-03,14.0
2007-03-04,23.0
2007-03-05,14.0
2007-03-06,21.0
2007-03-07,12.0
2007-03-08,20.0
2007-03-09,23.0
2007-03-10,14.0
2007-03-11,23.0
2007-03-12,39.0
2007-03-13,49.0
2007-03-14,61.0
2007-03-15,109.0
2007-03-16,107.0
2007-03-17,51.0
2007-03-18,20.0
2007-03-19,10.0
2007-03-20,11.0
2007-03-21,13.0
2007-03-22,11.0
2007-03-23,21.0
2007-03-24,18.0
2007-03-25,23.0
2007-03-26,35.0
2007-03-27,30.0
2007-03-28,27.0
2007-03-29,22.0
2007-03-30,15.0
2007-03-31,17.0
2007-04-01,26.0
2007-04-02,30.0
2007-04-03,22.0
2007-04-04,27.0
2007-04-05,38.0
2007-04-06,43.0
2007-04-07,38.0
2007-04-08,47.0
2007-04-09,18.0
2007-04-10,24.0
2007-04-11,31.0
2007-04-12,33.0
2007-04-13,40.0
2007-04-14,30.0
2007-04-15,34.0
2007-04-16,29.0
2007-04-17,
2007-04-18,47.0
2007-04-19,35.0
2007-04-20,31.0
2007-04-21,26.0
2007-04-22,20.0
2007-04-23,24.0
2007-04-24,31.0
2007-04-25,32.0
2007-04-26,31.0
2007-04-27,24.0
2007-04-28,26.0
2007-04-29,25.0
2007-04-30,21.0
2007-05-01,17.0
2007-05-02,10.0
2007-05-03,14.0
2007-05-04,24.0
2007-05-05,21.0
2007-05-06,25.0
2007-05-07,23.0
2007-05-08,11.0
2007-05-09,13.0
2007-05-10,25.0
2007-05-11,24.0
2007-05-12,17.0
2007-05-13,30.0
2007-05-14,20.0
2007-05-15,8.0
2007-05-16,14.0
2007-05-17,8.0
2007-05-18,11.0
2007-05-19,16.0
2007-05-20,22.0
2007-05-21,27.0
2007-05-22,31.0
2007-05-23,34.0
2007-05-24,43.0
2007-05-25,47.0
2007-05-26,35.0
2007-05-27,8.0
2007-05-28,4.0
2007-05-29,10.0
2007-05-30,17.0
2007-05-31,17.0
2007-06-01,11.0
2007-06-02,12.0
2007-06-03,20.0
2007-06-04,20.0
2007-06-05,20.0
2007-06-06,16.0
2007-06-07,21.0
2007-06-08,20.0
2007-06-09,24.0
2007-06-10,19.0
2007-06-11,18.0
2007-06-12,14.0
2007-06-13,19.0
2007-06-14,23.0
2007-06-15,10.0
2007-06-16,9.0
2007-06-17,12.0
2007-06-18,11.0
2007-06-19,17.0
2007-06-20,26.0
2007-06-21,12.0
2007-06-22,
2007-06-23,
2007-06-24,13.0
2007-06-25,16.0
2007-06-26,9.0
2007-06-27,7.0
2007-06-28,11.0
2007-06-29,24.0
2007-06-30,16.0
2007-07-01,26.0
2007-07-02,12.0
2007-07-03,19.0
2007-07-04,8.0
2007-07-05,9.0
2007-07-06,16.0
2007-07-07,13.0
2007-07-08,15.0
2007-07-09,8.0
2007-07-10,6.0
2007-07-11,9.0
2007-07-12,12.0
2007-07-13,23.0
2007-07-14,20.0
2007-07-15,14.0
2007-07-16,23.0
2007-07-17,27.0
2007-07-18,26.0
2007-07-19,27.0
2007-07-20,29.0
2007-07-21,15.0
2007-07-22,12.0
2007-07-23,18.0
2007-07-24,10.0
2007-07-25,10.0
2007-07-26,20.0
2007-07-27,15.0
2007-07-28,13.0
2007-07-29,9.0
2007-07-30,6.0
2007-07-31,10.0
2007-08-01,20.0
2007-08-02,24.0
2007-08-03,15.0
2007-08-04,20.0
2007-08-05,22.0
2007-08-06,26.0
2007-08-07,9.0
2007-08-08,23.0
2007-08-09,8.0
2007-08-10,10.0
2007-08-11,16.0
2007-08-12,18.0
2007-08-13,22.0
2007-08-14,22.0
2007-08-15,24.0
2007-08-16,16.0
2007-08-17,10.0
2007-08-18,14.0
2007-08-19,12.0
2007-08-20,9.0
2007-08-21,9.0
2007-08-22,11.0
2007-08-23,13.0
2007-08-24,30.0
2007-08-25,22.0
2007-08-26,26.0
2007-08-27,48.0
2007-08-28,53.0
2007-08-29,38.0
2007-08-30,15.0
2007-08-31,22.0
2007-09-01,18.0
2007-09-02,19.0
2007-09-03,14.0
2007-09-04,14.0
2007-09-05,15.0
2007-09-06,16.0
2007-09-07,21.0
2007-09-08,17.0
2007-09-09,14.0
2007-09-10,21.0
2007-09-11,25.0
2007-09-12,
2007-09-13,
2007-09-14,29.0
2007-09-15,27.0
2007-09-16,30.0
2007-09-17,35.0
2007-09-18,9.0
2007-09-19,14.0
2007-09-20,20.0
2007-09-21,45.0
2007-09-22,26.0
2007-09-23,29.0
2007-09-24,33.0
2007-09-25,12.0
2007-09-26,12.0
2007-09-27,8.0
2007-09-28,14.0
2007-09-29,20.0
2007-09-30,18.0
2007-10-01,30.0
2007-10-02,37.0
2007-10-03,47.0
2007-10-04,26.0
2007-10-05,31.0
2007-10-06,23.0
2007-10-07,23.0
2007-10-08,26.0
2007-10-09,33.0
2007-10-10,36.0
2007-10-11,47.0
2007-10-12,46.0
2007-10-13,51.0
2007-10-14,46.0
2007-10-15,41.0
2007-10-16,41.0
2007-10-17,53.0
2007-10-18,17.0
2007-10-19,13.0
2007-10-20,11.0
2007-10-21,9.0
2007-10-22,15.0
2007-10-23,32.0
2007-10-24,40.0
2007-10-25,36.0
2007-10-26,33.0
2007-10-27,41.0
2007-10-28,46.0
2007-10-29,50.0
2007-10-30,10.0
2007-10-31,28.0
2007-11-01,36.0
2007-11-02,45.0
2007-11-03,57.0
2007-11-04,65.0
2007-11-05,40.0
2007-11-06,30.0
2007-11-07,33.0
2007-11-08,36.0
2007-11-09,14.0
2007-11-10,20.0
2007-11-11,21.0
2007-11-12,12.0
2007-11-13,23.0
2007-11-14,10.0
2007-11-15,13.0
2007-11-16,20.0
2007-11-17,26.0
2007-11-18,51.0
2007-11-19,48.0
2007-11-20,24.0
2007-11-21,13.0
2007-11-22,23.0
2007-11-23,13.0
2007-11-24,14.0
2007-11-25,14.0
2007-11-26,13.0
2007-11-27,26.0
2007-11-28,47.0
2007-11-29,59.0
2007-11-30,65.0
2007-12-01,60.0
2007-12-02,38.0
2007-12-03,6.0
2007-12-04,10.0
2007-12-05,34.0
2007-12-06,38.0
2007-12-07,22.0
2007-12-08,8.0
2007-12-09,8.0
2007-12-10,9.0
2007-12-11,6.0
2007-12-12,16.0
2007-12-13,33.0
2007-12-14,37.0
2007-12-15,27.0
2007-12-16,39.0
2007-12-17,63.0
2007-12-18,66.0
2007-12-19,75.0
2007-12-20,81.0
2007-12-21,87.0
2007-12-22,94.0
2007-12-23,88.0
2007-12-24,64.0
2007-12-25,70.0
2007-12-26,65.0
2007-12-27,44.0
2007-12-28,51.0
2007-12-29,59.0
2007-12-30,28.0
2007-12-31,19.0
2008-01-01,42.0
2008-01-02,44.0
2008-01-03,40.0
2008-01-04,62.0
2008-01-05,30.0
2008-01-06,13.0
2008-01-07,19.0
2008-01-08,37.0
2008-01-09,42.0
2008-01-10,35.0
2008-01-11,10.0
2008-01-12,8.0
2008-01-13,15.0
2008-01-14,21.0
2008-01-15,14.0
2008-01-16,11.0
2008-01-17,20.0
2008-01-18,25.0
2008-01-19,28.0
2008-01-20,26.0
2008-01-21,45.0
2008-01-22,25.0
2008-01-23,24.0
2008-01-24,50.0
2008-01-25,58.0
2008-01-26,49.0
2008-01-27,67.0
2008-01-28,73.0
2008-01-29,78.0
2008-01-30,67.0
2008-01-31,28.0
2008-02-01,40.0
2008-02-02,7.0
2008-02-03,15.0
2008-02-04,11.0
2008-02-05,18.0
2008-02-06,21.0
2008-02-07,29.0
2008-02-08,39.0
2008-02-09,48.0
2008-02-10,52.0
2008-02-11,69.0
2008-02-12,83.0
2008-02-13,87.0
2008-02-14,91.0
2008-02-15,95.0
2008-02-16,68.0
2008-02-17,77.0
2008-02-18,70.0
2008-02-19,58.0
2008-02-20,65.0
2008-02-21,40.0
2008-02-22,40.0
2008-02-23,44.0
2008-02-24,37.0
2008-02-25,37.0
2008-02-26,38.0
2008-02-27,23.0
2008-02-28,31.0
2008-02-29,42.0
2008-03-01,24.0
2008-03-02,14.0
2008-03-03,19.0
2008-03-04,5.0
2008-03-05,10.0
2008-03-06,11.0
2008-03-07,24.0
2008-03-08,26.0
2008-03-09,23.0
2008-03-10,7.0
2008-03-11,9.0
2008-03-12,20.0
2008-03-13,19.0
2008-03-14,36.0
2008-03-15,27.0
2008-03-16,9.0
2008-03-17,12.0
2008-03-18,21.0
2008-03-19,20.0
2008-03-20,19.0
2008-03-21,16.0
2008-03-22,12.0
2008-03-23,15.0
2008-03-24,15.0
2008-03-25,16.0
2008-03-26,20.0
2008-03-27,10.0
2008-03-28,23.0
2008-03-29,17.0
2008-03-30,19.0
2008-03-31,9.0
2008-04-01,14.0
2008-04-02,16.0
2008-04-03,16.0
2008-04-04,21.0
2008-04-05,20.0
2008-04-06,16.0
2008-04-07,11.0
2008-04-08,23.0
2008-04-09,16.0
2008-04-10,17.0
2008-04-11,21.0
2008-04-12,27.0
2008-04-13,14.0
2008-04-14,9.0
2008-04-15,12.0
2008-04-16,19.0
2008-04-17,22.0
2008-04-18,14.0
2008-04-19,6.0
2008-04-20,8.0
2008-04-21,8.0
2008-04-22,9.0
2008-04-23,17.0
2008-04-24,15.0
2008-04-25,17.0
2008-04-26,19.0
2008-04-27,17.0
2008-04-28,21.0
2008-04-29,13.0
2008-04-30,11.0
2008-05-01,11.0
2008-05-02,15.0
2008-05-03,21.0
2008-05-04,24.0
2008-05-05,29.0
2008-05-06,25.0
2008-05-07,24.0
2008-05-08,20.0
2008-05-09,22.0
2008-05-10,26.0
2008-05-11,19.0
2008-05-12,13.0
2008-05-13,19.0
2008-05-14,23.0
2008-05-15,22.0
2008-05-16,12.0
2008-05-17,9.0
2008-05-18,10.0
2008-05-19,10.0
2008-05-20,19.0
2008-05-21,22.0
2008-05-22,22.0
2008-05-23,24.0
2008-05-24,14.0
2008-05-25,13.0
2008-05-26,18.0
2008-05-27,39.0
2008-05-28,26.0
2008-05-29,23.0
2008-05-30,21.0
2008-05-31,18.0
2008-06-01,19.0
2008-06-02,15.0
2008-06-03,17.0
2008-06-04,13.0
2008-06-05,11.0
2008-06-06,12.0
2008-06-07,13.0
2008-06-08,17.0
2008-06-09,
2008-06-10,
2008-06-11,18.0
2008-06-12,24.0
2008-06-13,15.0
2008-06-14,14.0
2008-06-15,20.0
2008-06-16,23.0
2008-06-17,18.0
2008-06-18,17.0
2008-06-19,24.0
2008-06-20,25.0
2008-06-21,27.0
2008-06-22,30.0
2008-06-23,35.0
2008-06-24,31.0
2008-06-25,33.0
2008-06-26,25.0
2008-06-27,25.0
2008-06-28,19.0
2008-06-29,28.0
2008-06-30,29.0
2008-07-01,30.0
2008-07-02,35.0
2008-07-03,20.0
2008-07-04,17.0
2008-07-05,21.0
2008-07-06,12.0
2008-07-07,11.0
2008-07-08,11.0
2008-07-09,19.0
2008-07-10,29.0
2008-07-11,29.0
2008-07-12,11.0
2008-07-13,8.0
2008-07-14,14.0
2008-07-15,17.0
2008-07-16,20.0
2008-07-17,21.0
2008-07-18,16.0
2008-07-19,18.0
2008-07-20,17.0
2008-07-21,12.0
2008-07-22,15.0
2008-07-23,17.0
2008-07-24,22.0
2008-07-25,25.0
2008-07-26,25.0
2008-07-27,19.0
2008-07-28,26.0
2008-07-29,31.0
2008-07-30,32.0
2008-07-31,32.0
2008-08-01,22.0
2008-08-02,14.0
2008-08-03,18.0
2008-08-04,20.0
2008-08-05,16.0
2008-08-06,26.0
2008-08-07,27.0
2008-08-08,18.0
2008-08-09,12.0
2008-08-10,17.0
2008-08-11,17.0
2008-08-12,16.0
2008-08-13,11.0
2008-08-14,16.0
2008-08-15,8.0
2008-08-16,14.0
2008-08-17,18.0
2008-08-18,21.0
2008-08-19,21.0
2008-08-20,11.0
2008-08-21,17.0
2008-08-22,17.0
2008-08-23,9.0
2008-08-24,15.0
2008-08-25,18.0
2008-08-26,19.0
2008-08-27,24.0
2008-08-28,27.0
2008-08-29,31.0
2008-08-30,29.0
2008-08-31,22.0
2008-09-01,20.0
2008-09-02,21.0
2008-09-03,22.0
2008-09-04,15.0
2008-09-05,21.0
2008-09-06,21.0
2008-09-07,12.0
2008-09-08,18.0
2008-09-09,26.0
2008-09-10,41.0
2008-09-11,48.0
2008-09-12,7.0
2008-09-13,5.0
2008-09-14,8.0
2008-09-15,14.0
2008-09-16,23.0
2008-09-17,26.0
2008-09-18,32.0
2008-09-19,21.0
2008-09-20,28.0
2008-09-21,23.0
2008-09-22,23.0
2008-09-23,28.0
2008-09-24,27.0
2008-09-25,29.0
2008-09-26,30.0
2008-09-27,31.0
2008-09-28,34.0
2008-09-29,38.0
2008-09-30,38.0
2008-10-01,32.0
2008-10-02,27.0
2008-10-03,13.0
2008-10-04,14.0
2008-10-05,22.0
2008-10-06,28.0
2008-10-07,42.0
2008-10-08,33.0
2008-10-09,20.0
2008-10-10,38.0
2008-10-11,39.0
2008-10-12,31.0
2008-10-13,42.0
2008-10-14,54.0
2008-10-15,77.0
2008-10-16,59.0
2008-10-17,16.0
2008-10-18,29.0
2008-10-19,42.0
2008-10-20,49.0
2008-10-21,40.0
2008-10-22,14.0
2008-10-23,17.0
2008-10-24,31.0
2008-10-25,34.0
2008-10-26,37.0
2008-10-27,41.0
2008-10-28,18.0
2008-10-29,14.0
2008-10-30,18.0
2008-10-31,20.0
2008-11-01,19.0
2008-11-02,23.0
2008-11-03,13.0
2008-11-04,34.0
2008-11-05,32.0
2008-11-06,29.0
2008-11-07,30.0
2008-11-08,28.0
2008-11-09,30.0
2008-11-10,25.0
2008-11-11,18.0
2008-11-12,18.0
2008-11-13,18.0
2008-11-14,26.0
2008-11-15,39.0
2008-11-16,37.0
2008-11-17,25.0
2008-11-18,34.0
2008-11-19,34.0
2008-11-20,36.0
2008-11-21,31.0
2008-11-22,14.0
2008-11-23,14.0
2008-11-24,19.0
2008-11-25,21.0
2008-11-26,31.0
2008-11-27,54.0
2008-11-28,52.0
2008-11-29,50.0
2008-11-30,13.0
2008-12-01,26.0
2008-12-02,25.0
2008-12-03,26.0
2008-12-04,30.0
2008-12-05,15.0
2008-12-06,20.0
2008-12-07,27.0
2008-12-08,41.0
2008-12-09,60.0
2008-12-10,15.0
2008-12-11,15.0
2008-12-12,
2008-12-13,32.0
2008-12-14,33.0
2008-12-15,47.0
2008-12-16,30.0
2008-12-17,
2008-12-18,28.0
2008-12-19,38.0
2008-12-20,31.0
2008-12-21,31.0
2008-12-22,38.0
2008-12-23,
2008-12-24,42.0
2008-12-25,32.0
2008-12-26,29.0
2008-12-27,33.0
2008-12-28,51.0
2008-12-29,57.0
2008-12-30,60.0
2008-12-31,28.0
2009-01-01,26.0
2009-01-02,30.0
2009-01-03,36.0
2009-01-04,44.0
2009-01-05,67.0
2009-01-06,50.0
2009-01-07,53.0
2009-01-08,58.0
2009-01-09,77.0
2009-01-10,91.0
2009-01-11,95.0
2009-01-12,92.0
2009-01-13,96.0
2009-01-14,68.0
2009-01-15,50.0
2009-01-16,63.0
2009-01-17,68.0
2009-01-18,34.0
2009-01-19,18.0
2009-01-20,15.0
2009-01-21,41.0
2009-01-22,33.0
2009-01-23,10.0
2009-01-24,14.0
2009-01-25,23.0
2009-01-26,38.0
2009-01-27,24.0
2009-01-28,37.0
2009-01-29,55.0
2009-01-30,74.0
2009-01-31,61.0
2009-02-01,55.0
2009-02-02,57.0
2009-02-03,46.0
2009-02-04,32.0
2009-02-05,12.0
2009-02-06,22.0
2009-02-07,17.0
2009-02-08,16.0
2009-02-09,30.0
2009-02-10,16.0
2009-02-11,15.0
2009-02-12,20.0
2009-02-13,24.0
2009-02-14,31.0
2009-02-15,32.0
2009-02-16,38.0
2009-02-17,49.0
2009-02-18,29.0
2009-02-19,32.0
2009-02-20,43.0
2009-02-21,44.0
2009-02-22,28.0
2009-02-23,27.0
2009-02-24,24.0
2009-02-25,38.0
2009-02-26,59.0
2009-02-27,48.0
2009-02-28,47.0
2009-03-01,41.0
2009-03-02,36.0
2009-03-03,44.0
2009-03-04,27.0
2009-03-05,10.0
2009-03-06,24.0
2009-03-07,28.0
2009-03-08,24.0
2009-03-09,18.0
2009-03-10,27.0
2009-03-11,18.0
2009-03-12,29.0
2009-03-13,40.0
2009-03-14,43.0
2009-03-15,25.0
2009-03-16,34.0
2009-03-17,42.0
2009-03-18,60.0
2009-03-19,36.0
2009-03-20,29.0
2009-03-21,28.0
2009-03-22,40.0
2009-03-23,58.0
2009-03-24,23.0
2009-03-25,21.0
2009-03-26,24.0
2009-03-27,26.0
2009-03-28,21.0
2009-03-29,16.0
2009-03-30,27.0
2009-03-31,33.0
2009-04-01,40.0
2009-04-02,52.0
2009-04-03,24.0
2009-04-04,38.0
2009-04-05,49.0
2009-04-06,32.0
2009-04-07,29.0
2009-04-08,32.0
2009-04-09,34.0
2009-04-10,33.0
2009-04-11,26.0
2009-04-12,30.0
2009-04-13,33.0
2009-04-14,45.0
2009-04-15,33.0
2009-04-16,14.0
2009-04-17,19.0
2009-04-18,17.0
2009-04-19,19.0
2009-04-20,25.0
2009-04-21,35.0
2009-04-22,41.0
2009-04-23,37.0
2009-04-24,30.0
2009-04-25,24.0
2009-04-26,19.0
2009-04-27,14.0
2009-04-28,18.0
2009-04-29,16.0
2009-04-30,19.0
2009-05-01,26.0
2009-05-02,33.0
2009-05-03,28.0
2009-05-04,20.0
2009-05-05,26.0
2009-05-06,32.0
2009-05-07,31.0
2009-05-08,29.0
2009-05-09,32.0
2009-05-10,27.0
2009-05-11,34.0
2009-05-12,35.0
2009-05-13,39.0
2009-05-14,31.0
2009-05-15,14.0
2009-05-16,19.0
2009-05-17,24.0
2009-05-18,20.0
2009-05-19,26.0
2009-05-20,33.0
2009-05-21,38.0
2009-05-22,45.0
2009-05-23,44.0
2009-05-24,47.0
2009-05-25,50.0
2009-05-26,32.0
2009-05-27,19.0
2009-05-28,26.0
2009-05-29,22.0
2009-05-30,24.0
2009-05-31,21.0
2009-06-01,20.0
2009-06-02,28.0
2009-06-03,30.0
2009-06-04,25.0
2009-06-05,
2009-06-06,16.0
2009-06-07,18.0
2009-06-08,20.0
2009-06-09,19.0
2009-06-10,18.0
2009-06-11,18.0
2009-06-12,18.0
2009-06-13,25.0
2009-06-14,28.0
2009-06-15,37.0
2009-06-16,26.0
2009-06-17,34.0
2009-06-18,37.0
2009-06-19,32.0
2009-06-20,18.0
2009-06-21,20.0
2009-06-22,18.0
2009-06-23,20.0
2009-06-24,24.0
2009-06-25,33.0
2009-06-26,37.0
2009-06-27,23.0
2009-06-28,
2009-06-29,34.0
2009-06-30,35.0
2009-07-01,30.0
2009-07-02,31.0
2009-07-03,26.0
2009-07-04,26.0
2009-07-05,22.0
2009-07-06,19.0
2009-07-07,18.0
2009-07-08,13.0
2009-07-09,17.0
2009-07-10,17.0
2009-07-11,18.0
2009-07-12,21.0
2009-07-13,33.0
2009-07-14,27.0
2009-07-15,30.0
2009-07-16,33.0
2009-07-17,19.0
2009-07-18,11.0
2009-07-19,15.0
2009-07-20,18.0
2009-07-21,25.0
2009-07-22,29.0
2009-07-23,45.0
2009-07-24,21.0
2009-07-25,14.0
2009-07-26,17.0
2009-07-27,26.0
2009-07-28,19.0
2009-07-29,26.0
2009-07-30,20.0
2009-07-31,20.0
2009-08-01,23.0
2009-08-02,17.0
2009-08-03,18.0
2009-08-04,21.0
2009-08-05,22.0
2009-08-06,24.0
2009-08-07,24.0
2009-08-08,13.0
2009-08-09,16.0
2009-08-10,16.0
2009-08-11,18.0
2009-08-12,20.0
2009-08-13,24.0
2009-08-14,28.0
2009-08-15,31.0
2009-08-16,31.0
2009-08-17,29.0
2009-08-18,28.0
2009-08-19,33.0
2009-08-20,29.0
2009-08-21,30.0
2009-08-22,23.0
2009-08-23,25.0
2009-08-24,31.0
2009-08-25,23.0
2009-08-26,28.0
2009-08-27,36.0
2009-08-28,30.0
2009-08-29,20.0
2009-08-30,20.0
2009-08-31,28.0
2009-09-01,33.0
2009-09-02,32.0
2009-09-03,25.0
2009-09-04,16.0
2009-09-05,11.0
2009-09-06,13.0
2009-09-07,22.0
2009-09-08,29.0
2009-09-09,35.0
2009-09-10,41.0
2009-09-11,43.0
2009-09-12,38.0
2009-09-13,31.0
2009-09-14,23.0
2009-09-15,22.0
2009-09-16,33.0
2009-09-17,35.0
2009-09-18,34.0
2009-09-19,20.0
2009-09-20,21.0
2009-09-21,25.0
2009-09-22,40.0
2009-09-23,41.0
2009-09-24,38.0
2009-09-25,32.0
2009-09-26,34.0
2009-09-27,26.0
2009-09-28,33.0
2009-09-29,32.0
2009-09-30,41.0
2009-10-01,43.0
2009-10-02,29.0
2009-10-03,27.0
2009-10-04,29.0
2009-10-05,39.0
2009-10-06,42.0
2009-10-07,39.0
2009-10-08,32.0
2009-10-09,33.0
2009-10-10,20.0
2009-10-11,19.0
2009-10-12,16.0
2009-10-13,18.0
2009-10-14,25.0
2009-10-15,21.0
2009-10-16,26.0
2009-10-17,19.0
2009-10-18,19.0
2009-10-19,34.0
2009-10-20,28.0
2009-10-21,33.0
2009-10-22,25.0
2009-10-23,20.0
2009-10-24,25.0
2009-10-25,29.0
2009-10-26,25.0
2009-10-27,35.0
2009-10-28,45.0
2009-10-29,51.0
2009-10-30,54.0
2009-10-31,65.0
2009-11-01,58.0
2009-11-02,21.0
2009-11-03,19.0
2009-11-04,17.0
2009-11-05,20.0
2009-11-06,24.0
2009-11-07,23.0
2009-11-08,16.0
2009-11-09,15.0
2009-11-10,17.0
2009-11-11,29.0
2009-11-12,36.0
2009-11-13,47.0
2009-11-14,24.0
2009-11-15,38.0
2009-11-16,38.0
2009-11-17,45.0
2009-11-18,45.0
2009-11-19,55.0
2009-11-20,66.0
2009-11-21,60.0
2009-11-22,48.0
2009-11-23,28.0
2009-11-24,29.0
2009-11-25,38.0
2009-11-26,43.0
2009-11-27,47.0
2009-11-28,28.0
2009-11-29,15.0
2009-11-30,20.0
2009-12-01,22.0
2009-12-02,32.0
2009-12-03,34.0
2009-12-04,16.0
2009-12-05,33.0
2009-12-06,33.0
2009-12-07,37.0
2009-12-08,21.2
2009-12-09,36.0
2009-12-10,54.2
2009-12-11,28.2
2009-12-12,19.8
2009-12-13,26.5
2009-12-14,35.5
2009-12-15,36.2
2009-12-16,39.1
2009-12-17,37.1
2009-12-18,39.8
2009-12-19,23.4
2009-12-20,
2009-12-21,
2009-12-22,
2009-12-23,15.0
2009-12-24,20.0
2009-12-25,14.0
2009-12-26,24.0
2009-12-27,37.0
2009-12-28,30.0
2009-12-29,37.0
2009-12-30,31.0
2009-12-31,31.0
2010-01-01,24.0
2010-01-02,15.0
2010-01-03,25.0
2010-01-04,29.0
2010-01-05,45.0
2010-01-06,40.0
2010-01-07,40.0
2010-01-08,27.0
2010-01-09,25.0
2010-01-10,35.0
2010-01-11,
2010-01-12,
2010-01-13,46.0
2010-01-14,36.0
2010-01-15,39.0
2010-01-16,43.0
2010-01-17,37.0
2010-01-18,34.0
2010-01-19,36.0
2010-01-20,
2010-01-21,
2010-01-22,
2010-01-23,44.0
2010-01-24,54.0
2010-01-25,48.0
2010-01-26,32.0
2010-01-27,53.0
2010-01-28,48.0
2010-01-29,43.0
2010-01-30,14.0
2010-01-31,18.0
2010-02-01,31.0
2010-02-02,37.0
2010-02-03,39.0
2010-02-04,46.0
2010-02-05,15.0
2010-02-06,24.0
2010-02-07,23.0
2010-02-08,29.0
2010-02-09,34.0
2010-02-10,30.0
2010-02-11,54.0
2010-02-12,71.0
2010-02-13,60.0
2010-02-14,53.0
2010-02-15,56.0
2010-02-16,69.0
2010-02-17,67.0
2010-02-18,40.0
2010-02-19,16.0
2010-02-20,18.0
2010-02-21,14.0
2010-02-22,7.0
2010-02-23,16.0
2010-02-24,16.0
2010-02-25,12.0
2010-02-26,12.0
2010-02-27,15.0
2010-02-28,9.0
2010-03-01,19.0
2010-03-02,18.0
2010-03-03,22.0
2010-03-04,35.0
2010-03-05,25.0
2010-03-06,28.0
2010-03-07,33.0
2010-03-08,44.0
2010-03-09,37.0
2010-03-10,47.0
2010-03-11,61.0
2010-03-12,58.0
2010-03-13,63.0
2010-03-14,35.0
2010-03-15,19.0
2010-03-16,28.0
2010-03-17,33.0
2010-03-18,34.0
2010-03-19,29.0
2010-03-20,32.0
2010-03-21,41.0
2010-03-22,27.0
2010-03-23,24.0
2010-03-24,35.0
2010-03-25,31.0
2010-03-26,21.0
2010-03-27,11.0
2010-03-28,15.0
2010-03-29,15.0
2010-03-30,
2010-03-31,10.0
2010-04-01,10.0
2010-04-02,14.0
2010-04-03,11.0
2010-04-04,6.0
2010-04-05,10.0
2010-04-06,21.0
2010-04-07,20.0
2010-04-08,15.0
2010-04-09,42.0
2010-04-10,52.0
2010-04-11,22.0
2010-04-12,18.0
2010-04-13,17.0
2010-04-14,24.0
2010-04-15,27.0
2010-04-16,23.0
2010-04-17,28.0
2010-04-18,16.0
2010-04-19,24.0
2010-04-20,32.0
2010-04-21,26.0
2010-04-22,26.0
2010-04-23,33.0
2010-04-24,35.0
2010-04-25,27.0
2010-04-26,23.0
2010-04-27,25.0
2010-04-28,27.0
2010-04-29,
2010-04-30,33.0
2010-05-01,32.0
2010-05-02,12.0
2010-05-03,14.0
2010-05-04,19.0
2010-05-05,11.0
2010-05-06,12.0
2010-05-07,20.0
2010-05-08,16.0
2010-05-09,14.0
2010-05-10,16.0
2010-05-11,11.0
2010-05-12,14.0
2010-05-13,15.0
2010-05-14,17.0
2010-05-15,19.0
2010-05-16,30.0
2010-05-17,26.0
2010-05-18,27.0
2010-05-19,26.0
2010-05-20,23.0
2010-05-21,19.0
2010-05-22,18.0
2010-05-23,22.0
2010-05-24,18.0
2010-05-25,20.0
2010-05-26,21.0
2010-05-27,14.0
2010-05-28,19.0
2010-05-29,19.0
2010-05-30,13.0
2010-05-31,8.0
2010-06-01,14.0
2010-06-02,14.0
2010-06-03,20.0
2010-06-04,19.0
2010-06-05,23.0
2010-06-06,20.0
2010-06-07,16.0
2010-06-08,27.0
2010-06-09,28.0
2010-06-10,32.0
2010-06-11,24.0
2010-06-12,15.0
2010-06-13,14.0
2010-06-14,12.0
2010-06-15,11.0
2010-06-16,11.0
2010-06-17,12.0
2010-06-18,13.0
2010-06-19,15.0
2010-06-20,13.0
2010-06-21,16.0
2010-06-22,19.0
2010-06-23,21.0
2010-06-24,23.0
2010-06-25,24.0
2010-06-26,26.0
2010-06-27,26.0
2010-06-28,32.0
2010-06-29,34.0
2010-06-30,47.0
2010-07-01,24.0
2010-07-02,28.0
2010-07-03,21.0
2010-07-04,17.0
2010-07-05,20.0
2010-07-06,21.0
2010-07-07,22.0
2010-07-08,28.0
2010-07-09,36.0
2010-07-10,35.0
2010-07-11,
2010-07-12,39.0
2010-07-13,31.0
2010-07-14,34.0
2010-07-15,21.0
2010-07-16,27.0
2010-07-17,40.0
2010-07-18,16.0
2010-07-19,22.0
2010-07-20,26.0
2010-07-21,32.0
2010-07-22,23.0
2010-07-23,13.0
2010-07-24,11.0
2010-07-25,14.0
2010-07-26,14.0
2010-07-27,13.0
2010-07-28,19.0
2010-07-29,
2010-07-30,
2010-07-31,14.0
2010-08-01,17.0
2010-08-02,15.0
2010-08-03,12.0
2010-08-04,13.0
2010-08-05,7.0
2010-08-06,12.0
2010-08-07,16.0
2010-08-08,18.0
2010-08-09,20.0
2010-08-10,22.0
2010-08-11,24.0
2010-08-12,15.0
2010-08-13,17.0
2010-08-14,19.0
2010-08-15,13.0
2010-08-16,13.0
2010-08-17,19.0
2010-08-18,21.0
2010-08-19,26.0
2010-08-20,20.0
2010-08-21,24.0
2010-08-22,26.0
2010-08-23,28.0
2010-08-24,23.0
2010-08-25,18.0
2010-08-26,24.0
2010-08-27,22.0
2010-08-28,10.0
2010-08-29,11.0
2010-08-30,13.0
2010-08-31,11.0
2010-09-01,18.0
2010-09-02,22.0
2010-09-03,26.0
2010-09-04,21.0
2010-09-05,20.0
2010-09-06,28.0
2010-09-07,13.0
2010-09-08,10.0
2010-09-09,29.0
2010-09-10,13.0
2010-09-11,17.0
2010-09-12,18.0
2010-09-13,14.0
2010-09-14,19.0
2010-09-15,30.0
2010-09-16,19.0
2010-09-17,13.0
2010-09-18,18.0
2010-09-19,17.0
2010-09-20,23.0
2010-09-21,25.0
2010-09-22,26.0
2010-09-23,28.0
2010-09-24,24.0
2010-09-25,7.0
2010-09-26,10.0
2010-09-27,14.0
2010-09-28,16.0
2010-09-29,20.0
2010-09-30,28.0
2010-10-01,22.0
2010-10-02,21.0
2010-10-03,19.0
2010-10-04,23.0
2010-10-05,13.0
2010-10-06,23.0
2010-10-07,27.0
2010-10-08,46.0
2010-10-09,32.0
2010-10-10,31.0
2010-10-11,24.0
2010-10-12,32.0
2010-10-13,52.0
2010-10-14,51.0
2010-10-15,49.0
2010-10-16,30.0
2010-10-17,10.0
2010-10-18,22.0
2010-10-19,23.0
2010-10-20,15.0
2010-10-21,20.0
2010-10-22,33.0
2010-10-23,38.0
2010-10-24,11.0
2010-10-25,9.0
2010-10-26,21.0
2010-10-27,33.0
2010-10-28,30.0
2010-10-29,27.0
2010-10-30,12.0
2010-10-31,17.0
2010-11-01,27.0
2010-11-02,18.0
2010-11-03,29.0
2010-11-04,30.0
2010-11-05,29.0
2010-11-06,32.0
2010-11-07,22.0
2010-11-08,9.0
2010-11-09,10.0
2010-11-10,8.0
2010-11-11,15.0
2010-11-12,22.0
2010-11-13,28.0
2010-11-14,9.0
2010-11-15,13.0
2010-11-16,8.0
2010-11-17,26.0
2010-11-18,24.0
2010-11-19,29.0
2010-11-20,28.0
2010-11-21,29.0
2010-11-22,28.0
2010-11-23,18.0
2010-11-24,22.0
2010-11-25,23.0
2010-11-26,16.0
2010-11-27,24.0
2010-11-28,34.0
2010-11-29,33.0
2010-11-30,29.0
2010-12-01,27.0
2010-12-02,49.0
2010-12-03,29.0
2010-12-04,35.0
2010-12-05,19.0
2010-12-06,15.0
2010-12-07,33.0
2010-12-08,27.0
2010-12-09,16.0
2010-12-10,20.0
2010-12-11,48.0
2010-12-12,42.0
2010-12-13,28.0
2010-12-14,33.0
2010-12-15,
2010-12-16,
2010-12-17,18.0
2010-12-18,30.0
2010-12-19,16.0
2010-12-20,51.0
2010-12-21,34.0
2010-12-22,31.0
2010-12-23,38.0
2010-12-24,10.0
2010-12-25,15.0
2010-12-26,22.0
2010-12-27,38.0
2010-12-28,60.0
2010-12-29,62.0
2010-12-30,56.0
2010-12-31,50.0
2011-01-01,47.0
2011-01-02,17.0
2011-01-03,31.0
2011-01-04,59.0
2011-01-05,62.0
2011-01-06,11.0
2011-01-07,14.0
2011-01-08,20.0
2011-01-09,11.0
2011-01-10,18.0
2011-01-11,27.0
2011-01-12,27.0
2011-01-13,37.0
2011-01-14,35.0
2011-01-15,35.0
2011-01-16,34.0
2011-01-17,50.0
2011-01-18,58.0
2011-01-19,29.0
2011-01-20,19.0
2011-01-21,20.0
2011-01-22,25.0
2011-01-23,37.0
2011-01-24,59.0
2011-01-25,66.0
2011-01-26,64.0
2011-01-27,61.0
2011-01-28,72.0
2011-01-29,65.0
2011-01-30,73.0
2011-01-31,71.0
2011-02-01,66.0
2011-02-02,72.0
2011-02-03,95.0
2011-02-04,77.0
2011-02-05,59.0
2011-02-06,52.0
2011-02-07,56.0
2011-02-08,65.0
2011-02-09,74.0
2011-02-10,69.0
2011-02-11,68.0
2011-02-12,63.0
2011-02-13,64.0
2011-02-14,48.0
2011-02-15,28.0
2011-02-16,
2011-02-17,
2011-02-18,
2011-02-19,
2011-02-20,
2011-02-21,
2011-02-22,
2011-02-23,
2011-02-24,
2011-02-25,
2011-02-26,22.0
2011-02-27,5.0
2011-02-28,19.0
2011-03-01,32.0
2011-03-02,56.0
2011-03-03,61.0
2011-03-04,66.0
2011-03-05,72.0
2011-03-06,75.0
2011-03-07,69.0
2011-03-08,51.0
2011-03-09,38.0
2011-03-10,42.0
2011-03-11,45.0
2011-03-12,40.0
2011-03-13,22.0
2011-03-14,24.0
2011-03-15,34.0
2011-03-16,25.0
2011-03-17,27.0
2011-03-18,35.0
2011-03-19,25.0
2011-03-20,20.0
2011-03-21,26.0
2011-03-22,32.0
2011-03-23,40.0
2011-03-24,36.0
2011-03-25,31.0
2011-03-26,24.0
2011-03-27,25.0
2011-03-28,16.0
2011-03-29,17.0
2011-03-30,10.0
2011-03-31,21.0
2011-04-01,22.0
2011-04-02,20.0
2011-04-03,17.0
2011-04-04,9.0
2011-04-05,14.0
2011-04-06,20.0
2011-04-07,24.0
2011-04-08,23.0
2011-04-09,19.0
2011-04-10,21.0
2011-04-11,25.0
2011-04-12,24.0
2011-04-13,16.0
2011-04-14,20.0
2011-04-15,26.0
2011-04-16,24.0
2011-04-17,24.0
2011-04-18,26.0
2011-04-19,27.0
2011-04-20,32.0
2011-04-21,35.0
2011-04-22,32.0
2011-04-23,20.0
2011-04-24,15.0
2011-04-25,17.0
2011-04-26,24.0
2011-04-27,26.0
2011-04-28,26.0
2011-04-29,16.0
2011-04-30,13.0
2011-05-01,15.0
2011-05-02,17.0
2011-05-03,16.0
2011-05-04,25.0
2011-05-05,22.0
2011-05-06,25.0
2011-05-07,18.0
2011-05-08,19.0
2011-05-09,25.0
2011-05-10,27.0
2011-05-11,29.0
2011-05-12,21.0
2011-05-13,18.0
2011-05-14,13.0
2011-05-15,10.0
2011-05-16,13.0
2011-05-17,15.0
2011-05-18,15.0
2011-05-19,
2011-05-20,17.0
2011-05-21,17.0
2011-05-22,19.0
2011-05-23,19.0
2011-05-24,21.0
2011-05-25,22.0
2011-05-26,25.0
2011-05-27,16.0
2011-05-28,12.0
2011-05-29,14.0
2011-05-30,21.0
2011-05-31,15.0
2011-06-01,8.0
2011-06-02,18.0
2011-06-03,18.0
2011-06-04,17.0
2011-06-05,11.0
2011-06-06,13.0
2011-06-07,16.0
2011-06-08,10.0
2011-06-09,
2011-06-10,
2011-06-11,11.0
2011-06-12,12.0
2011-06-13,15.0
2011-06-14,19.0
2011-06-15,24.0
2011-06-16,19.0
2011-06-17,17.0
2011-06-18,11.0
2011-06-19,10.0
2011-06-20,14.0
2011-06-21,21.0
2011-06-22,15.0
2011-06-23,16.0
2011-06-24,15.0
2011-06-25,17.0
2011-06-26,20.0
2011-06-27,27.0
2011-06-28,28.0
2011-06-29,24.0
2011-06-30,22.0
2011-07-01,21.0
2011-07-02,15.0
2011-07-03,16.0
2011-07-04,25.0
2011-07-05,24.0
2011-07-06,28.0
2011-07-07,25.0
2011-07-08,13.0
2011-07-09,21.0
2011-07-10,21.0
2011-07-11,22.0
2011-07-12,32.0
2011-07-13,18.0
2011-07-14,13.0
2011-07-15,17.0
2011-07-16,17.0
2011-07-17,10.0
2011-07-18,10.0
2011-07-19,13.0
2011-07-20,11.0
2011-07-21,14.0
2011-07-22,11.0
2011-07-23,11.0
2011-07-24,10.0
2011-07-25,14.0
2011-07-26,15.0
2011-07-27,16.0
2011-07-28,16.0
2011-07-29,16.0
2011-07-30,19.0
2011-07-31,15.0
2011-08-01,19.0
2011-08-02,26.0
2011-08-03,28.0
2011-08-04,23.0
2011-08-05,23.0
2011-08-06,22.0
2011-08-07,15.0
2011-08-08,17.0
2011-08-09,13.0
2011-08-10,15.0
2011-08-11,19.0
2011-08-12,21.0
2011-08-13,19.0
2011-08-14,21.0
2011-08-15,16.0
2011-08-16,13.0
2011-08-17,20.0
2011-08-18,26.0
2011-08-19,31.0
2011-08-20,
2011-08-21,41.0
2011-08-22,40.0
2011-08-23,39.0
2011-08-24,33.0
2011-08-25,32.0
2011-08-26,32.0
2011-08-27,7.0
2011-08-28,11.0
2011-08-29,16.0
2011-08-30,16.0
2011-08-31,26.0
2011-09-01,18.0
2011-09-02,28.0
2011-09-03,30.0
2011-09-04,24.0
2011-09-05,12.0
2011-09-06,16.0
2011-09-07,19.0
2011-09-08,15.0
2011-09-09,18.0
2011-09-10,24.0
2011-09-11,24.0
2011-09-12,13.0
2011-09-13,16.0
2011-09-14,13.0
2011-09-15,23.0
2011-09-16,28.0
2011-09-17,20.0
2011-09-18,11.0
2011-09-19,10.0
2011-09-20,14.0
2011-09-21,22.0
2011-09-22,23.0
2011-09-23,26.0
2011-09-24,26.0
2011-09-25,18.0
2011-09-26,27.0
2011-09-27,32.0
2011-09-28,33.0
2011-09-29,32.0
2011-09-30,35.0
2011-10-01,35.0
2011-10-02,31.0
2011-10-03,33.0
2011-10-04,34.0
2011-10-05,33.0
2011-10-06,29.0
2011-10-07,11.0
2011-10-08,12.0
2011-10-09,9.0
2011-10-10,16.0
2011-10-11,21.0
2011-10-12,20.0
2011-10-13,16.0
2011-10-14,20.0
2011-10-15,26.0
2011-10-16,27.0
2011-10-17,33.0
2011-10-18,34.0
2011-10-19,20.0
2011-10-20,12.0
2011-10-21,23.0
2011-10-22,27.0
2011-10-23,28.0
2011-10-24,17.0
2011-10-25,10.0
2011-10-26,17.0
2011-10-27,24.0
2011-10-28,30.0
2011-10-29,29.0
2011-10-30,27.0
2011-10-31,32.0
2011-11-01,29.0
2011-11-02,19.0
2011-11-03,16.0
2011-11-04,14.0
2011-11-05,14.0
2011-11-06,31.0
2011-11-07,40.0
2011-11-08,33.0
2011-11-09,32.0
2011-11-10,33.0
2011-11-11,31.0
2011-11-12,34.0
2011-11-13,37.0
2011-11-14,40.0
2011-11-15,44.0
2011-11-16,48.0
2011-11-17,46.0
2011-11-18,45.0
2011-11-19,50.0
2011-11-20,54.0
2011-11-21,49.0
2011-11-22,51.0
2011-11-23,60.0
2011-11-24,46.0
2011-11-25,55.0
2011-11-26,68.0
2011-11-27,53.0
2011-11-28,59.0
2011-11-29,54.0
2011-11-30,66.0
2011-12-01,46.0
2011-12-02,13.0
2011-12-03,18.0
2011-12-04,28.0
2011-12-05,14.0
2011-12-06,27.0
2011-12-07,
2011-12-08,
2011-12-09,
2011-12-10,37.0
2011-12-11,36.0
2011-12-12,27.0
2011-12-13,28.0
2011-12-14,35.0
2011-12-15,13.0
2011-12-16,5.0
2011-12-17,10.0
2011-12-18,16.0
2011-12-19,27.0
2011-12-20,24.0
2011-12-21,39.0
2011-12-22,19.0
2011-12-23,32.0
2011-12-24,9.0
2011-12-25,18.0
2011-12-26,34.0
2011-12-27,41.0
2011-12-28,48.0
2011-12-29,26.0
2011-12-30,22.0
2011-12-31,21.0
2012-01-01,33.0
2012-01-02,22.0
2012-01-03,16.0
2012-01-04,20.0
2012-01-05,19.0
2012-01-06,11.0
2012-01-07,21.0
2012-01-08,27.0
2012-01-09,19.0
2012-01-10,32.0
2012-01-11,37.0
2012-01-12,44.0
2012-01-13,45.0
2012-01-14,37.0
2012-01-15,43.0
2012-01-16,50.0
2012-01-17,57.0
2012-01-18,61.0
2012-01-19,73.0
2012-01-20,31.0
2012-01-21,17.0
2012-01-22,17.0
2012-01-23,13.0
2012-01-24,14.0
2012-01-25,24.0
2012-01-26,37.0
2012-01-27,25.0
2012-01-28,9.0
2012-01-29,16.0
2012-01-30,27.0
2012-01-31,23.0
2012-02-01,39.0
2012-02-02,53.0
2012-02-03,43.0
2012-02-04,35.0
2012-02-05,44.0
2012-02-06,45.0
2012-02-07,40.0
2012-02-08,58.0
2012-02-09,85.0
2012-02-10,45.0
2012-02-11,59.0
2012-02-12,53.0
2012-02-13,63.0
2012-02-14,62.0
2012-02-15,38.0
2012-02-16,11.0
2012-02-17,27.0
2012-02-18,43.0
2012-02-19,29.0
2012-02-20,17.0
2012-02-21,38.0
2012-02-22,57.0
2012-02-23,62.0
2012-02-24,56.0
2012-02-25,44.0
2012-02-26,34.0
2012-02-27,32.0
2012-02-28,
2012-02-29,54.0
2012-03-01,
2012-03-02,
2012-03-03,32.0
2012-03-04,43.0
2012-03-05,11.0
2012-03-06,17.0
2012-03-07,39.0
2012-03-08,16.0
2012-03-09,24.0
2012-03-10,30.0
2012-03-11,27.0
2012-03-12,30.0
2012-03-13,39.0
2012-03-14,44.0
2012-03-15,41.0
2012-03-16,49.0
2012-03-17,38.0
2012-03-18,17.0
2012-03-19,14.0
2012-03-20,17.0
2012-03-21,28.0
2012-03-22,35.0
2012-03-23,34.0
2012-03-24,33.0
2012-03-25,31.0
2012-03-26,25.0
2012-03-27,32.0
2012-03-28,34.0
2012-03-29,36.0
2012-03-30,32.0
2012-03-31,24.0
2012-04-01,30.0
2012-04-02,34.0
2012-04-03,33.0
2012-04-04,
2012-04-05,
2012-04-06,
2012-04-07,16.0
2012-04-08,19.0
2012-04-09,
2012-04-10,
2012-04-11,
2012-04-12,15.0
2012-04-13,12.0
2012-04-14,15.0
2012-04-15,7.0
2012-04-16,17.0
2012-04-17,20.0
2012-04-18,13.0
2012-04-19,7.0
2012-04-20,9.0
2012-04-21,7.0
2012-04-22,7.0
2012-04-23,9.0
2012-04-24,8.0
2012-04-25,
2012-04-26,
2012-04-27,
2012-04-28,27.0
2012-04-29,12.0
2012-04-30,13.0
2012-05-01,12.0
2012-05-02,12.0
2012-05-03,16.0
2012-05-04,17.0
2012-05-05,8.0
2012-05-06,7.0
2012-05-07,11.0
2012-05-08,12.0
2012-05-09,16.0
2012-05-10,21.0
2012-05-11,26.0
2012-05-12,18.0
2012-05-13,13.0
2012-05-14,18.0
2012-05-15,19.0
2012-05-16,14.0
2012-05-17,21.0
2012-05-18,18.0
2012-05-19,18.0
2012-05-20,17.0
2012-05-21,7.0
2012-05-22,9.0
2012-05-23,20.0
2012-05-24,29.0
2012-05-25,21.0
2012-05-26,13.0
2012-05-27,19.0
2012-05-28,18.0
2012-05-29,21.0
2012-05-30,23.0
2012-05-31,20.0
2012-06-01,20.0
2012-06-02,20.0
2012-06-03,17.0
2012-06-04,11.0
2012-06-05,12.0
2012-06-06,16.0
2012-06-07,21.0
2012-06-08,12.0
2012-06-09,16.0
2012-06-10,16.0
2012-06-11,10.0
2012-06-12,10.0
2012-06-13,12.0
2012-06-14,17.0
2012-06-15,26.0
2012-06-16,
2012-06-17,
2012-06-18,
2012-06-19,40.0
2012-06-20,36.0
2012-06-21,33.0
2012-06-22,20.0
2012-06-23,20.0
2012-06-24,25.0
2012-06-25,18.0
2012-06-26,16.0
2012-06-27,22.0
2012-06-28,37.0
2012-06-29,46.0
2012-06-30,47.0
2012-07-01,15.0
2012-07-02,12.0
2012-07-03,18.0
2012-07-04,21.0
2012-07-05,24.0
2012-07-06,18.0
2012-07-07,23.0
2012-07-08,19.0
2012-07-09,17.0
2012-07-10,21.0
2012-07-11,20.0
2012-07-12,18.0
2012-07-13,18.0
2012-07-14,14.0
2012-07-15,11.0
2012-07-16,14.0
2012-07-17,20.0
2012-07-18,26.0
2012-07-19,26.0
2012-07-20,19.0
2012-07-21,16.0
2012-07-22,16.0
2012-07-23,20.0
2012-07-24,26.0
2012-07-25,33.0
2012-07-26,34.0
2012-07-27,38.0
2012-07-28,33.0
2012-07-29,21.0
2012-07-30,24.0
2012-07-31,23.0
2012-08-01,33.0
2012-08-02,33.0
2012-08-03,24.0
2012-08-04,24.0
2012-08-05,18.0
2012-08-06,14.0
2012-08-07,17.0
2012-08-08,19.0
2012-08-09,19.0
2012-08-10,21.0
2012-08-11,22.0
2012-08-12,22.0
2012-08-13,21.0
2012-08-14,21.0
2012-08-15,26.0
2012-08-16,15.0
2012-08-17,27.0
2012-08-18,29.0
2012-08-19,29.0
2012-08-20,32.0
2012-08-21,46.0
2012-08-22,49.0
2012-08-23,40.0
2012-08-24,37.0
2012-08-25,21.0
2012-08-26,13.0
2012-08-27,23.0
2012-08-28,28.0
2012-08-29,27.0
2012-08-30,21.0
2012-08-31,11.0
2012-09-01,13.0
2012-09-02,13.0
2012-09-03,19.0
2012-09-04,31.0
2012-09-05,38.0
2012-09-06,42.0
2012-09-07,36.0
2012-09-08,36.0
2012-09-09,27.0
2012-09-10,31.0
2012-09-11,36.0
2012-09-12,16.0
2012-09-13,14.0
2012-09-14,17.0
2012-09-15,19.0
2012-09-16,20.0
2012-09-17,30.0
2012-09-18,35.0
2012-09-19,15.0
2012-09-20,20.0
2012-09-21,28.0
2012-09-22,26.0
2012-09-23,30.0
2012-09-24,18.0
2012-09-25,21.0
2012-09-26,17.0
2012-09-27,20.0
2012-09-28,22.0
2012-09-29,20.0
2012-09-30,18.0
2012-10-01,22.0
2012-10-02,23.0
2012-10-03,27.0
2012-10-04,25.0
2012-10-05,
2012-10-06,27.0
2012-10-07,21.0
2012-10-08,17.0
2012-10-09,15.0
2012-10-10,19.0
2012-10-11,21.0
2012-10-12,14.0
2012-10-13,18.0
2012-10-14,17.0
2012-10-15,10.0
2012-10-16,22.0
2012-10-17,12.0
2012-10-18,21.0
2012-10-19,35.0
2012-10-20,33.0
2012-10-21,38.0
2012-10-22,34.0
2012-10-23,34.0
2012-10-24,45.0
2012-10-25,38.0
2012-10-26,37.0
2012-10-27,12.0
2012-10-28,8.0
2012-10-29,17.0
2012-10-30,34.0
2012-10-31,38.0
2012-11-01,23.0
2012-11-02,12.0
2012-11-03,10.0
2012-11-04,11.0
2012-11-05,12.0
2012-11-06,18.0
2012-11-07,24.0
2012-11-08,35.0
2012-11-09,35.0
2012-11-10,18.0
2012-11-11,9.0
2012-11-12,16.0
2012-11-13,26.0
2012-11-14,30.0
2012-11-15,41.0
2012-11-16,45.0
2012-11-17,39.0
2012-11-18,40.0
2012-11-19,41.0
2012-11-20,47.0
2012-11-21,63.0
2012-11-22,66.0
2012-11-23,52.0
2012-11-24,21.0
2012-11-25,29.0
2012-11-26,16.0
2012-11-27,7.0
2012-11-28,8.0
2012-11-29,7.0
2012-11-30,14.0
2012-12-01,24.0
2012-12-02,33.0
2012-12-03,29.0
2012-12-04,18.0
2012-12-05,14.0
2012-12-06,12.0
2012-12-07,22.0
2012-12-08,13.0
2012-12-09,23.0
2012-12-10,
2012-12-11,
2012-12-12,
2012-12-13,
2012-12-14,10.0
2012-12-15,21.0
2012-12-16,33.0
2012-12-17,19.0
2012-12-18,19.0
2012-12-19,28.0
2012-12-20,28.0
2012-12-21,35.0
2012-12-22,29.0
2012-12-23,29.0
2012-12-24,46.0
2012-12-25,40.0
2012-12-26,23.0
2012-12-27,24.0
2012-12-28,17.0
2012-12-29,26.0
2012-12-30,26.0
2012-12-31,30.0
2013-01-01,37.0
2013-01-02,15.0
2013-01-03,30.0
2013-01-04,45.0
2013-01-05,30.0
2013-01-06,28.0
2013-01-07,34.0
2013-01-08,40.0
2013-01-09,51.0
2013-01-10,40.0
2013-01-11,19.0
2013-01-12,31.0
2013-01-13,26.0
2013-01-14,17.0
2013-01-15,23.0
2013-01-16,18.0
2013-01-17,30.0
2013-01-18,40.0
2013-01-19,38.0
2013-01-20,24.0
2013-01-21,25.0
2013-01-22,24.0
2013-01-23,37.0
2013-01-24,35.0
2013-01-25,38.0
2013-01-26,43.0
2013-01-27,51.0
2013-01-28,24.0
2013-01-29,34.0
2013-01-30,29.0
2013-01-31,25.0
2013-02-01,31.0
2013-02-02,6.0
2013-02-03,10.0
2013-02-04,23.0
2013-02-05,26.0
2013-02-06,8.0
2013-02-07,12.0
2013-02-08,18.0
2013-02-09,20.0
2013-02-10,22.0
2013-02-11,20.0
2013-02-12,22.0
2013-02-13,32.0
2013-02-14,39.0
2013-02-15,37.0
2013-02-16,34.0
2013-02-17,32.0
2013-02-18,43.0
2013-02-19,41.0
2013-02-20,43.0
2013-02-21,42.0
2013-02-22,35.0
2013-02-23,46.0
2013-02-24,42.0
2013-02-25,48.0
2013-02-26,71.0
2013-02-27,83.0
2013-02-28,75.0
2013-03-01,
2013-03-02,71.0
2013-03-03,65.0
2013-03-04,64.0
2013-03-05,50.0
2013-03-06,34.0
2013-03-07,27.0
2013-03-08,19.0
2013-03-09,27.0
2013-03-10,16.0
2013-03-11,12.0
2013-03-12,11.0
2013-03-13,22.0
2013-03-14,20.0
2013-03-15,20.0
2013-03-16,18.0
2013-03-17,7.0
2013-03-18,15.0
2013-03-19,15.0
2013-03-20,15.0
2013-03-21,17.0
2013-03-22,27.0
2013-03-23,29.0
2013-03-24,40.0
2013-03-25,52.0
2013-03-26,51.0
2013-03-27,35.0
2013-03-28,20.0
2013-03-29,26.0
2013-03-30,14.0
2013-03-31,34.0
2013-04-01,36.0
2013-04-02,35.0
2013-04-03,43.0
2013-04-04,57.0
2013-04-05,46.0
2013-04-06,49.0
2013-04-07,45.0
2013-04-08,39.0
2013-04-09,13.0
2013-04-10,12.0
2013-04-11,11.0
2013-04-12,7.0
2013-04-13,11.0
2013-04-14,13.0
2013-04-15,19.0
2013-04-16,23.0
2013-04-17,27.0
2013-04-18,33.0
2013-04-19,9.0
2013-04-20,6.0
2013-04-21,15.0
2013-04-22,25.0
2013-04-23,26.0
2013-04-24,24.0
2013-04-25,23.0
2013-04-26,28.0
2013-04-27,8.0
2013-04-28,12.0
2013-04-29,22.0
2013-04-30,23.0
2013-05-01,22.0
2013-05-02,25.0
2013-05-03,10.0
2013-05-04,20.0
2013-05-05,22.0
2013-05-06,20.0
2013-05-07,21.0
2013-05-08,16.0
2013-05-09,10.0
2013-05-10,9.0
2013-05-11,12.0
2013-05-12,9.0
2013-05-13,16.0
2013-05-14,17.0
2013-05-15,15.0
2013-05-16,6.0
2013-05-17,9.0
2013-05-18,7.0
2013-05-19,6.0
2013-05-20,10.0
2013-05-21,12.0
2013-05-22,9.0
2013-05-23,12.0
2013-05-24,
2013-05-25,
2013-05-26,
2013-05-27,
2013-05-28,13.0
2013-05-29,
2013-05-30,
2013-05-31,10.0
2013-06-01,15.0
2013-06-02,
2013-06-03,
2013-06-04,17.0
2013-06-05,18.0
2013-06-06,19.0
2013-06-07,20.0
2013-06-08,22.0
2013-06-09,13.0
2013-06-10,14.0
2013-06-11,17.0
2013-06-12,22.0
2013-06-13,26.0
2013-06-14,14.0
2013-06-15,
2013-06-16,
2013-06-17,
2013-06-18,48.0
2013-06-19,51.0
2013-06-20,33.0
2013-06-21,18.0
2013-06-22,14.0
2013-06-23,13.0
2013-06-24,14.0
2013-06-25,19.0
2013-06-26,20.0
2013-06-27,21.0
2013-06-28,20.0
2013-06-29,15.0
2013-06-30,13.0
2013-07-01,20.0
2013-07-02,28.0
2013-07-03,23.0
2013-07-04,14.0
2013-07-05,20.0
2013-07-06,23.0
2013-07-07,24.0
2013-07-08,25.0
2013-07-09,21.0
2013-07-10,21.0
2013-07-11,29.0
2013-07-12,33.0
2013-07-13,30.0
2013-07-14,29.0
2013-07-15,32.0
2013-07-16,33.0
2013-07-17,30.0
2013-07-18,22.0
2013-07-19,22.0
2013-07-20,19.0
2013-07-21,20.0
2013-07-22,24.0
2013-07-23,19.0
2013-07-24,24.0
2013-07-25,30.0
2013-07-26,32.0
2013-07-27,29.0
2013-07-28,26.0
2013-07-29,9.0
2013-07-30,16.0
2013-07-31,21.0
2013-08-01,27.0
2013-08-02,27.0
2013-08-03,23.0
2013-08-04,23.0
2013-08-05,31.0
2013-08-06,35.0
2013-08-07,22.0
2013-08-08,10.0
2013-08-09,16.0
2013-08-10,16.0
2013-08-11,19.0
2013-08-12,21.0
2013-08-13,22.0
2013-08-14,20.0
2013-08-15,21.0
2013-08-16,24.0
2013-08-17,25.0
2013-08-18,24.0
2013-08-19,24.0
2013-08-20,18.0
2013-08-21,22.0
2013-08-22,26.0
2013-08-23,32.0
2013-08-24,20.0
2013-08-25,13.0
2013-08-26,16.0
2013-08-27,15.0
2013-08-28,15.0
2013-08-29,20.0
2013-08-30,24.0
2013-08-31,24.0
2013-09-01,22.0
2013-09-02,21.0
2013-09-03,28.0
2013-09-04,31.0
2013-09-05,36.0
2013-09-06,27.0
2013-09-07,20.0
2013-09-08,9.0
2013-09-09,
2013-09-10,
2013-09-11,11.0
2013-09-12,11.0
2013-09-13,13.0
2013-09-14,15.0
2013-09-15,9.0
2013-09-16,11.0
2013-09-17,13.0
2013-09-18,13.0
2013-09-19,10.0
2013-09-20,11.0
2013-09-21,12.0
2013-09-22,17.0
2013-09-23,25.0
2013-09-24,28.0
2013-09-25,28.0
2013-09-26,37.0
2013-09-27,31.0
2013-09-28,27.0
2013-09-29,15.0
2013-09-30,9.0
2013-10-01,14.0
2013-10-02,19.0
2013-10-03,22.0
2013-10-04,21.0
2013-10-05,6.0
2013-10-06,7.0
2013-10-07,12.0
2013-10-08,21.0
2013-10-09,25.0
2013-10-10,15.0
2013-10-11,8.0
2013-10-12,9.0
2013-10-13,12.0
2013-10-14,20.0
2013-10-15,20.0
2013-10-16,15.0
2013-10-17,14.0
2013-10-18,20.0
2013-10-19,20.0
2013-10-20,17.0
2013-10-21,17.0
2013-10-22,29.0
2013-10-23,12.0
2013-10-24,14.0
2013-10-25,17.0
2013-10-26,22.0
2013-10-27,20.0
2013-10-28,21.0
2013-10-29,8.0
2013-10-30,14.0
2013-10-31,25.0
2013-11-01,30.0
2013-11-02,14.0
2013-11-03,11.0
2013-11-04,12.0
2013-11-05,10.0
2013-11-06,16.0
2013-11-07,25.0
2013-11-08,25.0
2013-11-09,8.0
2013-11-10,6.0
2013-11-11,8.0
2013-11-12,23.0
2013-11-13,40.0
2013-11-14,29.0
2013-11-15,15.0
2013-11-16,31.0
2013-11-17,29.0
2013-11-18,41.0
2013-11-19,19.0
2013-11-20,5.0
2013-11-21,18.0
2013-11-22,9.0
2013-11-23,13.0
2013-11-24,18.0
2013-11-25,11.0
2013-11-26,13.0
2013-11-27,27.0
2013-11-28,41.0
2013-11-29,51.0
2013-11-30,37.0
2013-12-01,27.0
2013-12-02,34.0
2013-12-03,43.0
2013-12-04,45.0
2013-12-05,54.0
2013-12-06,26.0
2013-12-07,26.0
2013-12-08,46.0
2013-12-09,53.0
2013-12-10,52.0
2013-12-11,59.0
2013-12-12,61.0
2013-12-13,56.0
2013-12-14,49.0
2013-12-15,49.0
2013-12-16,61.0
2013-12-17,62.0
2013-12-18,65.0
2013-12-19,11.0
2013-12-20,15.0
2013-12-21,21.0
2013-12-22,12.0
2013-12-23,14.0
2013-12-24,4.0
2013-12-25,2.0
2013-12-26,3.0
2013-12-27,19.0
2013-12-28,8.0
2013-12-29,14.0
2013-12-30,21.0
2013-12-31,24.0
2014-01-01,13.0
2014-01-02,12.0
2014-01-03,21.0
2014-01-04,18.0
2014-01-05,9.0
2014-01-06,29.0
2014-01-07,30.0
2014-01-08,37.0
2014-01-09,42.0
2014-01-10,33.0
2014-01-11,48.0
2014-01-12,43.0
2014-01-13,43.0
2014-01-14,13.0
2014-01-15,18.0
2014-01-16,10.0
2014-01-17,12.0
2014-01-18,18.0
2014-01-19,37.0
2014-01-20,10.0
2014-01-21,10.0
2014-01-22,25.0
2014-01-23,31.0
2014-01-24,11.0
2014-01-25,22.0
2014-01-26,25.0
2014-01-27,12.0
2014-01-28,18.0
2014-01-29,18.0
2014-01-30,24.0
2014-01-31,30.0
2014-02-01,32.0
2014-02-02,5.0
2014-02-03,20.0
2014-02-04,21.0
2014-02-05,8.0
2014-02-06,18.0
2014-02-07,8.0
2014-02-08,9.0
2014-02-09,7.0
2014-02-10,7.0
2014-02-11,11.0
2014-02-12,18.0
2014-02-13,9.0
2014-02-14,11.0
2014-02-15,11.0
2014-02-16,4.0
2014-02-17,11.0
2014-02-18,25.0
2014-02-19,30.0
2014-02-20,23.0
2014-02-21,13.0
2014-02-22,11.0
2014-02-23,11.0
2014-02-24,15.0
2014-02-25,13.0
2014-02-26,13.0
2014-02-27,18.0
2014-02-28,8.0
2014-03-01,11.0
2014-03-02,11.0
2014-03-03,9.0
2014-03-04,9.0
2014-03-05,17.0
2014-03-06,25.0
2014-03-07,31.0
2014-03-08,28.0
2014-03-09,23.0
2014-03-10,32.0
2014-03-11,55.0
2014-03-12,60.0
2014-03-13,53.0
2014-03-14,59.0
2014-03-15,67.0
2014-03-16,20.0
2014-03-17,26.0
2014-03-18,29.0
2014-03-19,29.0
2014-03-20,37.0
2014-03-21,41.0
2014-03-22,13.0
2014-03-23,5.0
2014-03-24,8.0
2014-03-25,17.0
2014-03-26,19.0
2014-03-27,24.0
2014-03-28,25.0
2014-03-29,22.0
2014-03-30,24.0
2014-03-31,28.0
2014-04-01,40.0
2014-04-02,52.0
2014-04-03,51.0
2014-04-04,34.0
2014-04-05,22.0
2014-04-06,21.0
2014-04-07,27.0
2014-04-08,12.0
2014-04-09,14.0
2014-04-10,18.0
2014-04-11,22.0
2014-04-12,23.0
2014-04-13,22.0
2014-04-14,24.0
2014-04-15,27.0
2014-04-16,22.0
2014-04-17,24.0
2014-04-18,30.0
2014-04-19,9.0
2014-04-20,14.0
2014-04-21,16.0
2014-04-22,16.0
2014-04-23,13.0
2014-04-24,18.0
2014-04-25,16.0
2014-04-26,12.0
2014-04-27,8.0
2014-04-28,7.0
2014-04-29,10.0
2014-04-30,7.0
2014-05-01,8.0
2014-05-02,4.0
2014-05-03,14.0
2014-05-04,11.0
2014-05-05,17.0
2014-05-06,21.0
2014-05-07,10.0
2014-05-08,10.0
2014-05-09,12.0
2014-05-10,13.0
2014-05-11,12.0
2014-05-12,11.0
2014-05-13,7.0
2014-05-14,9.0
2014-05-15,15.0
2014-05-16,15.0
2014-05-17,13.0
2014-05-18,15.0
2014-05-19,19.0
2014-05-20,21.0
2014-05-21,34.0
2014-05-22,33.0
2014-05-23,11.0
2014-05-24,7.0
2014-05-25,10.0
2014-05-26,12.0
2014-05-27,7.0
2014-05-28,13.0
2014-05-29,11.0
2014-05-30,10.0
2014-05-31,11.0
2014-06-01,14.0
2014-06-02,21.0
2014-06-03,20.0
2014-06-04,22.0
2014-06-05,15.0
2014-06-06,23.0
2014-06-07,26.0
2014-06-08,31.0
2014-06-09,35.0
2014-06-10,23.0
2014-06-11,18.0
2014-06-12,27.0
2014-06-13,30.0
2014-06-14,24.0
2014-06-15,16.0
2014-06-16,20.0
2014-06-17,20.0
2014-06-18,14.0
2014-06-19,18.0
2014-06-20,21.0
2014-06-21,17.0
2014-06-22,21.0
2014-06-23,26.0
2014-06-24,19.0
2014-06-25,20.0
2014-06-26,22.0
2014-06-27,23.0
2014-06-28,18.0
2014-06-29,7.0
2014-06-30,10.0
2014-07-01,17.0
2014-07-02,15.0
2014-07-03,18.0
2014-07-04,22.0
2014-07-05,13.0
2014-07-06,16.0
2014-07-07,
2014-07-08,
2014-07-09,7.0
2014-07-10,8.0
2014-07-11,9.0
2014-07-12,8.0
2014-07-13,13.0
2014-07-14,10.0
2014-07-15,17.0
2014-07-16,21.0
2014-07-17,25.0
2014-07-18,28.0
2014-07-19,28.0
2014-07-20,19.0
2014-07-21,10.0
2014-07-22,11.0
2014-07-23,13.0
2014-07-24,18.0
2014-07-25,27.0
2014-07-26,14.0
2014-07-27,16.0
2014-07-28,17.0
2014-07-29,8.0
2014-07-30,12.0
2014-07-31,19.0
2014-08-01,24.0
2014-08-02,15.0
2014-08-03,12.0
2014-08-04,19.0
2014-08-05,19.0
2014-08-06,21.0
2014-08-07,21.0
2014-08-08,19.0
2014-08-09,12.0
2014-08-10,20.0
2014-08-11,16.0
2014-08-12,14.0
2014-08-13,10.0
2014-08-14,11.0
2014-08-15,10.0
2014-08-16,11.0
2014-08-17,11.0
2014-08-18,16.0
2014-08-19,15.0
2014-08-20,16.0
2014-08-21,15.0
2014-08-22,19.0
2014-08-23,12.0
2014-08-24,10.0
2014-08-25,19.0
2014-08-26,21.0
2014-08-27,18.0
2014-08-28,16.0
2014-08-29,21.0
2014-08-30,13.0
2014-08-31,
2014-09-01,
2014-09-02,20.0
2014-09-03,19.0
2014-09-04,23.0
2014-09-05,23.0
2014-09-06,21.0
2014-09-07,22.0
2014-09-08,25.0
2014-09-09,21.0
2014-09-10,21.0
2014-09-11,29.0
2014-09-12,21.0
2014-09-13,13.0
2014-09-14,15.0
2014-09-15,22.0
2014-09-16,21.0
2014-09-17,26.0
2014-09-18,15.0
2014-09-19,23.0
2014-09-20,16.0
2014-09-21,17.0
2014-09-22,19.0
2014-09-23,28.0
2014-09-24,29.0
2014-09-25,25.0
2014-09-26,24.0
2014-09-27,25.0
2014-09-28,22.0
2014-09-29,25.0
2014-09-30,23.0
2014-10-01,20.0
2014-10-02,22.0
2014-10-03,24.0
2014-10-04,23.0
2014-10-05,18.0
2014-10-06,14.0
2014-10-07,14.0
2014-10-08,18.0
2014-10-09,18.0
2014-10-10,21.0
2014-10-11,13.0
2014-10-12,19.0
2014-10-13,15.0
2014-10-14,15.0
2014-10-15,19.0
2014-10-16,22.0
2014-10-17,19.0
2014-10-18,18.0
2014-10-19,20.0
2014-10-20,31.0
2014-10-21,24.0
2014-10-22,11.0
2014-10-23,15.0
2014-10-24,24.0
2014-10-25,25.0
2014-10-26,27.0
2014-10-27,31.0
2014-10-28,34.0
2014-10-29,33.0
2014-10-30,31.0
2014-10-31,33.0
2014-11-01,34.0
2014-11-02,29.0
2014-11-03,22.0
2014-11-04,10.0
2014-11-05,9.0
2014-11-06,17.0
2014-11-07,22.0
2014-11-08,23.0
2014-11-09,26.0
2014-11-10,26.0
2014-11-11,18.0
2014-11-12,26.0
2014-11-13,17.0
2014-11-14,20.0
2014-11-15,13.0
2014-11-16,11.0
2014-11-17,13.0
2014-11-18,20.0
2014-11-19,18.0
2014-11-20,25.0
2014-11-21,33.0
2014-11-22,32.0
2014-11-23,44.0
2014-11-24,58.0
2014-11-25,55.0
2014-11-26,44.0
2014-11-27,25.0
2014-11-28,36.0
2014-11-29,29.0
2014-11-30,24.0
2014-12-01,9.0
2014-12-02,9.0
2014-12-03,12.0
2014-12-04,25.0
2014-12-05,17.0
2014-12-06,14.0
2014-12-07,15.0
2014-12-08,27.0
2014-12-09,
2014-12-10,25.0
2014-12-11,29.0
2014-12-12,38.0
2014-12-13,17.0
2014-12-14,28.0
2014-12-15,40.0
2014-12-16,27.0
2014-12-17,14.0
2014-12-18,25.0
2014-12-19,31.0
2014-12-20,16.0
2014-12-21,14.0
2014-12-22,30.0
2014-12-23,39.0
2014-12-24,44.0
2014-12-25,28.0
2014-12-26,11.0
2014-12-27,16.0
2014-12-28,13.0
2014-12-29,23.0
2014-12-30,23.0
2014-12-31,25.0
2015-01-01,38.0
2015-01-02,41.0
2015-01-03,47.0
2015-01-04,31.0
2015-01-05,23.0
2015-01-06,33.0
2015-01-07,40.0
2015-01-08,38.0
2015-01-09,32.0
2015-01-10,34.0
2015-01-11,15.0
2015-01-12,26.0
2015-01-13,27.0
2015-01-14,25.0
2015-01-15,21.0
2015-01-16,10.0
2015-01-17,13.0
2015-01-18,18.0
2015-01-19,27.0
2015-01-20,30.0
2015-01-21,26.0
2015-01-22,30.0
2015-01-23,18.0
2015-01-24,20.0
2015-01-25,9.0
2015-01-26,15.0
2015-01-27,18.0
2015-01-28,20.0
2015-01-29,19.0
2015-01-30,8.0
2015-01-31,13.0
2015-02-01,12.0
2015-02-02,18.0
2015-02-03,20.0
2015-02-04,24.0
2015-02-05,19.0
2015-02-06,33.0
2015-02-07,45.0
2015-02-08,28.0
2015-02-09,27.0
2015-02-10,40.0
2015-02-11,41.0
2015-02-12,38.0
2015-02-13,41.0
2015-02-14,14.0
2015-02-15,15.0
2015-02-16,36.0
2015-02-17,33.0
2015-02-18,37.0
2015-02-19,29.0
2015-02-20,22.0
2015-02-21,9.0
2015-02-22,10.0
2015-02-23,
2015-02-24,
2015-02-25,10.0
2015-02-26,21.0
2015-02-27,16.0
2015-02-28,19.0
2015-03-01,25.0
2015-03-02,15.0
2015-03-03,19.0
2015-03-04,9.0
2015-03-05,9.0
2015-03-06,18.0
2015-03-07,30.0
2015-03-08,32.0
2015-03-09,37.0
2015-03-10,49.0
2015-03-11,52.0
2015-03-12,37.0
2015-03-13,37.0
2015-03-14,19.0
2015-03-15,49.0
2015-03-16,44.0
2015-03-17,30.0
2015-03-18,31.0
2015-03-19,46.0
2015-03-20,86.0
2015-03-21,57.0
2015-03-22,28.0
2015-03-23,20.0
2015-03-24,19.0
2015-03-25,7.0
2015-03-26,17.0
2015-03-27,15.0
2015-03-28,16.0
2015-03-29,14.0
2015-03-30,8.0
2015-03-31,14.0
2015-04-01,12.0
2015-04-02,11.0
2015-04-03,9.0
2015-04-04,5.0
2015-04-05,10.0
2015-04-06,10.0
2015-04-07,16.0
2015-04-08,19.0
2015-04-09,22.0
2015-04-10,20.0
2015-04-11,16.0
2015-04-12,17.0
2015-04-13,20.0
2015-04-14,20.0
2015-04-15,24.0
2015-04-16,30.0
2015-04-17,20.0
2015-04-18,12.0
2015-04-19,13.0
2015-04-20,17.0
2015-04-21,18.0
2015-04-22,19.0
2015-04-23,19.0
2015-04-24,21.0
2015-04-25,14.0
2015-04-26,13.0
2015-04-27,7.0
2015-04-28,15.0
2015-04-29,17.0
2015-04-30,14.0
2015-05-01,10.0
2015-05-02,11.0
2015-05-03,12.0
2015-05-04,19.0
2015-05-05,26.0
2015-05-06,11.0
2015-05-07,14.0
2015-05-08,14.0
2015-05-09,10.0
2015-05-10,11.0
2015-05-11,17.0
2015-05-12,23.0
2015-05-13,28.0
2015-05-14,21.0
2015-05-15,4.0
2015-05-16,18.0
2015-05-17,11.0
2015-05-18,16.0
2015-05-19,14.0
2015-05-20,9.0
2015-05-21,12.0
2015-05-22,18.0
2015-05-23,21.0
2015-05-24,
2015-05-25,
2015-05-26,
2015-05-27,16.0
2015-05-28,16.0
2015-05-29,18.0
2015-05-30,15.0
2015-05-31,13.0
2015-06-01,15.0
2015-06-02,15.0
2015-06-03,
2015-06-04,
2015-06-05,23.0
2015-06-06,19.0
2015-06-07,13.0
2015-06-08,17.0
2015-06-09,17.0
2015-06-10,21.0
2015-06-11,19.0
2015-06-12,18.0
2015-06-13,11.0
2015-06-14,10.0
2015-06-15,11.0
2015-06-16,9.0
2015-06-17,20.0
2015-06-18,15.0
2015-06-19,11.0
2015-06-20,13.0
2015-06-21,12.0
2015-06-22,16.0
2015-06-23,14.0
2015-06-24,14.0
2015-06-25,18.0
2015-06-26,19.0
2015-06-27,19.0
2015-06-28,15.0
2015-06-29,19.0
2015-06-30,23.0
2015-07-01,31.0
2015-07-02,30.0
2015-07-03,35.0
2015-07-04,27.0
2015-07-05,28.0
2015-07-06,35.0
2015-07-07,45.0
2015-07-08,25.0
2015-07-09,18.0
2015-07-10,21.0
2015-07-11,25.0
2015-07-12,20.0
2015-07-13,19.0
2015-07-14,20.0
2015-07-15,21.0
2015-07-16,29.0
2015-07-17,33.0
2015-07-18,30.0
2015-07-19,26.0
2015-07-20,24.0
2015-07-21,19.0
2015-07-22,19.0
2015-07-23,14.0
2015-07-24,21.0
2015-07-25,12.0
2015-07-26,11.0
2015-07-27,13.0
2015-07-28,14.0
2015-07-29,
2015-07-30,11.0
2015-07-31,18.0
2015-08-01,11.0
2015-08-02,14.0
2015-08-03,19.0
2015-08-04,21.0
2015-08-05,23.0
2015-08-06,28.0
2015-08-07,32.0
2015-08-08,25.0
2015-08-09,10.0
2015-08-10,17.0
2015-08-11,23.0
2015-08-12,26.0
2015-08-13,24.0
2015-08-14,13.0
2015-08-15,7.0
2015-08-16,8.0
2015-08-17,12.0
2015-08-18,14.0
2015-08-19,15.0
2015-08-20,15.0
2015-08-21,16.0
2015-08-22,16.0
2015-08-23,15.0
2015-08-24,10.0
2015-08-25,14.0
2015-08-26,17.0
2015-08-27,
2015-08-28,21.0
2015-08-29,22.0
2015-08-30,21.0
2015-08-31,29.0
2015-09-01,16.0
2015-09-02,11.0
2015-09-03,13.0
2015-09-04,14.0
2015-09-05,11.0
2015-09-06,9.0
2015-09-07,14.0
2015-09-08,21.0
2015-09-09,22.0
2015-09-10,23.0
2015-09-11,18.0
2015-09-12,14.0
2015-09-13,15.0
2015-09-14,13.0
2015-09-15,16.0
2015-09-16,14.0
2015-09-17,9.0
2015-09-18,12.0
2015-09-19,10.0
2015-09-20,8.0
2015-09-21,14.0
2015-09-22,15.0
2015-09-23,8.0
2015-09-24,11.0
2015-09-25,17.0
2015-09-26,19.0
2015-09-27,19.0
2015-09-28,20.0
2015-09-29,22.0
2015-09-30,22.0
2015-10-01,26.0
2015-10-02,28.0
2015-10-03,16.0
2015-10-04,14.0
2015-10-05,22.0
2015-10-06,15.0
2015-10-07,10.0
2015-10-08,18.0
2015-10-09,22.0
2015-10-10,23.0
2015-10-11,20.0
2015-10-12,24.0
2015-10-13,19.0
2015-10-14,32.0
2015-10-15,19.0
2015-10-16,22.0
2015-10-17,27.0
2015-10-18,26.0
2015-10-19,30.0
2015-10-20,31.0
2015-10-21,39.0
2015-10-22,32.0
2015-10-23,29.0
2015-10-24,31.0
2015-10-25,32.0
2015-10-26,34.0
2015-10-27,39.0
2015-10-28,20.0
2015-10-29,17.0
2015-10-30,23.0
2015-10-31,26.0
2015-11-01,27.0
2015-11-02,33.0
2015-11-03,28.0
2015-11-04,34.0
2015-11-05,28.0
2015-11-06,31.0
2015-11-07,27.0
2015-11-08,26.0
2015-11-09,35.0
2015-11-10,36.0
2015-11-11,29.0
2015-11-12,39.0
2015-11-13,48.0
2015-11-14,33.0
2015-11-15,31.0
2015-11-16,47.0
2015-11-17,51.0
2015-11-18,35.0
2015-11-19,29.0
2015-11-20,28.0
2015-11-21,5.0
2015-11-22,6.0
2015-11-23,12.0
2015-11-24,25.0
2015-11-25,21.0
2015-11-26,8.0
2015-11-27,19.0
2015-11-28,28.0
2015-11-29,29.0
2015-11-30,31.0
2015-12-01,29.0
2015-12-02,31.0
2015-12-03,41.0
2015-12-04,46.0
2015-12-05,51.0
2015-12-06,43.0
2015-12-07,35.0
2015-12-08,41.0
2015-12-09,24.0
2015-12-10,27.0
2015-12-11,39.0
2015-12-12,32.0
2015-12-13,39.0
2015-12-14,45.0
2015-12-15,46.0
2015-12-16,36.0
2015-12-17,38.0
2015-12-18,44.0
2015-12-19,39.0
2015-12-20,49.0
2015-12-21,49.0
2015-12-22,32.0
2015-12-23,29.0
2015-12-24,22.0
2015-12-25,24.0
2015-12-26,28.0
2015-12-27,32.0
2015-12-28,38.0
2015-12-29,48.0
2015-12-30,37.0
2015-12-31,43.0
2016-01-01,39.0
2016-01-02,18.0
2016-01-03,15.0
2016-01-04,13.0
2016-01-05,21.0
2016-01-06,17.0
2016-01-07,16.0
2016-01-08,24.0
2016-01-09,23.0
2016-01-10,19.0
2016-01-11,
2016-01-12,
2016-01-13,14.0
2016-01-14,17.0
2016-01-15,8.0
2016-01-16,8.0
2016-01-17,12.0
2016-01-18,22.0
2016-01-19,32.0
2016-01-20,32.0
2016-01-21,30.0
2016-01-22,35.0
2016-01-23,32.0
2016-01-24,25.0
2016-01-25,34.0
2016-01-26,35.0
2016-01-27,35.0
2016-01-28,50.0
2016-01-29,39.0
2016-01-30,19.0
2016-01-31,10.0
2016-02-01,18.0
2016-02-02,20.0
2016-02-03,11.0
2016-02-04,8.0
2016-02-05,14.0
2016-02-06,13.0
2016-02-07,9.0
2016-02-08,9.0
2016-02-09,5.0
2016-02-10,10.0
2016-02-11,13.0
2016-02-12,12.0
2016-02-13,8.0
2016-02-14,7.0
2016-02-15,11.0
2016-02-16,16.0
2016-02-17,27.0
2016-02-18,34.0
2016-02-19,11.0
2016-02-20,17.0
2016-02-21,19.0
2016-02-22,42.0
2016-02-23,35.0
2016-02-24,12.0
2016-02-25,16.0
2016-02-26,17.0
2016-02-27,28.0
2016-02-28,36.0
2016-02-29,39.0
2016-03-01,37.0
2016-03-02,21.0
2016-03-03,7.0
2016-03-04,9.0
2016-03-05,4.0
2016-03-06,9.0
2016-03-07,
2016-03-08,
2016-03-09,14.0
2016-03-10,18.0
2016-03-11,36.0
2016-03-12,45.0
2016-03-13,35.0
2016-03-14,28.0
2016-03-15,
2016-03-16,20.0
2016-03-17,32.0
2016-03-18,31.0
2016-03-19,31.0
2016-03-20,28.0
2016-03-21,55.0
2016-03-22,49.0
2016-03-23,22.0
2016-03-24,21.0
2016-03-25,28.0
2016-03-26,24.0
2016-03-27,14.0
2016-03-28,14.0
2016-03-29,14.0
2016-03-30,14.0
2016-03-31,33.0
2016-04-01,11.0
2016-04-02,24.0
2016-04-03,31.0
2016-04-04,27.0
2016-04-05,21.0
2016-04-06,6.0
2016-04-07,10.0
2016-04-08,6.0
2016-04-09,14.0
2016-04-10,11.0
2016-04-11,9.0
2016-04-12,
2016-04-13,14.0
2016-04-14,11.0
2016-04-15,19.0
2016-04-16,10.0
2016-04-17,11.0
2016-04-18,12.0
2016-04-19,10.0
2016-04-20,17.0
2016-04-21,20.0
2016-04-22,15.0
2016-04-23,8.0
2016-04-24,10.0
2016-04-25,7.0
2016-04-26,10.0
2016-04-27,8.0
2016-04-28,11.0
2016-04-29,13.0
2016-04-30,11.0
2016-05-01,4.0
2016-05-02,15.0
2016-05-03,16.0
2016-05-04,12.0
2016-05-05,14.0
2016-05-06,15.0
2016-05-07,18.0
2016-05-08,18.0
2016-05-09,13.0
2016-05-10,13.0
2016-05-11,10.0
2016-05-12,8.0
2016-05-13,6.0
2016-05-14,13.0
2016-05-15,17.0
2016-05-16,11.0
2016-05-17,14.0
2016-05-18,13.0
2016-05-19,5.0
2016-05-20,11.0
2016-05-21,11.0
2016-05-22,9.0
2016-05-23,3.0
2016-05-24,5.0
2016-05-25,11.0
2016-05-26,
2016-05-27,
2016-05-28,26.0
2016-05-29,10.0
2016-05-30,7.0
2016-05-31,6.0
2016-06-01,6.0
2016-06-02,7.0
2016-06-03,7.0
2016-06-04,9.0
2016-06-05,8.0
2016-06-06,10.0
2016-06-07,12.0
2016-06-08,12.0
2016-06-09,12.0
2016-06-10,14.0
2016-06-11,9.0
2016-06-12,7.0
2016-06-13,7.0
2016-06-14,7.0
2016-06-15,8.0
2016-06-16,6.0
2016-06-17,6.0
2016-06-18,4.0
2016-06-19,4.0
2016-06-20,8.0
2016-06-21,10.0
2016-06-22,13.0
2016-06-23,22.0
2016-06-24,24.0
2016-06-25,11.0
2016-06-26,8.0
2016-06-27,9.0
2016-06-28,13.0
2016-06-29,17.0
2016-06-30,18.0
2016-07-01,16.0
2016-07-02,13.0
2016-07-03,8.0
2016-07-04,13.0
2016-07-05,16.0
2016-07-06,13.0
2016-07-07,16.0
2016-07-08,22.0
2016-07-09,18.0
2016-07-10,19.0
2016-07-11,20.0
2016-07-12,8.0
2016-07-13,7.0
2016-07-14,4.0
2016-07-15,6.0
2016-07-16,9.0
2016-07-17,12.0
2016-07-18,
2016-07-19,
2016-07-20,22.0
2016-07-21,28.0
2016-07-22,16.0
2016-07-23,13.0
2016-07-24,11.0
2016-07-25,13.0
2016-07-26,16.0
2016-07-27,15.0
2016-07-28,14.0
2016-07-29,13.0
2016-07-30,14.0
2016-07-31,8.0
2016-08-01,8.0
2016-08-02,11.0
2016-08-03,17.0
2016-08-04,20.0
2016-08-05,
2016-08-06,8.0
2016-08-07,10.0
2016-08-08,11.0
2016-08-09,12.0
2016-08-10,13.0
2016-08-11,12.0
2016-08-12,10.0
2016-08-13,13.0
2016-08-14,13.0
2016-08-15,12.0
2016-08-16,12.0
2016-08-17,14.0
2016-08-18,15.0
2016-08-19,16.0
2016-08-20,12.0
2016-08-21,8.0
2016-08-22,9.0
2016-08-23,13.0
2016-08-24,17.0
2016-08-25,18.0
2016-08-26,20.0
2016-08-27,20.0
2016-08-28,19.0
2016-08-29,15.0
2016-08-30,14.0
2016-08-31,20.0
2016-09-01,17.0
2016-09-02,19.0
2016-09-03,19.0
2016-09-04,18.0
2016-09-05,15.0
2016-09-06,13.0
2016-09-07,17.0
2016-09-08,18.0
2016-09-09,21.0
2016-09-10,18.0
2016-09-11,18.0
2016-09-12,27.0
2016-09-13,25.0
2016-09-14,30.0
2016-09-15,12.0
2016-09-16,11.0
2016-09-17,7.0
2016-09-18,4.0
2016-09-19,13.0
2016-09-20,20.0
2016-09-21,21.0
2016-09-22,21.0
2016-09-23,20.0
2016-09-24,
2016-09-25,
2016-09-26,
2016-09-27,19.0
2016-09-28,19.0
2016-09-29,21.0
2016-09-30,18.0
2016-10-01,10.0
2016-10-02,11.0
2016-10-03,10.0
2016-10-04,13.0
2016-10-05,15.0
2016-10-06,17.0
2016-10-07,24.0
2016-10-08,20.0
2016-10-09,14.0
2016-10-10,16.0
2016-10-11,24.0
2016-10-12,27.0
2016-10-13,24.0
2016-10-14,14.0
2016-10-15,13.0
2016-10-16,16.0
2016-10-17,17.0
2016-10-18,12.0
2016-10-19,12.0
2016-10-20,11.0
2016-10-21,13.0
2016-10-22,16.0
2016-10-23,16.0
2016-10-24,23.0
2016-10-25,21.0
2016-10-26,13.0
2016-10-27,15.0
2016-10-28,23.0
2016-10-29,25.0
2016-10-30,24.0
2016-10-31,25.0
2016-11-01,30.0
2016-11-02,30.0
2016-11-03,20.0
2016-11-04,26.0
2016-11-05,14.0
2016-11-06,8.0
2016-11-07,16.0
2016-11-08,17.0
2016-11-09,16.0
2016-11-10,20.0
2016-11-11,9.0
2016-11-12,16.0
2016-11-13,19.0
2016-11-14,18.0
2016-11-15,24.0
2016-11-16,26.0
2016-11-17,27.0
2016-11-18,16.0
2016-11-19,12.0
2016-11-20,8.0
2016-11-21,3.0
2016-11-22,5.0
2016-11-23,24.0
2016-11-24,17.0
2016-11-25,22.0
2016-11-26,22.0
2016-11-27,19.0
2016-11-28,21.0
2016-11-29,
2016-11-30,36.0
2016-12-01,42.0
2016-12-02,42.0
2016-12-03,44.0
2016-12-04,45.0
2016-12-05,43.0
2016-12-06,40.0
2016-12-07,43.0
2016-12-08,45.0
2016-12-09,47.0
2016-12-10,48.0
2016-12-11,50.0
2016-12-12,42.0
2016-12-13,45.0
2016-12-14,45.0
2016-12-15,42.0
2016-12-16,39.0
2016-12-17,39.0
2016-12-18,42.0
2016-12-19,57.0
2016-12-20,55.0
2016-12-21,46.0
2016-12-22,46.0
2016-12-23,53.0
2016-12-24,42.0
2016-12-25,45.0
2016-12-26,38.0
2016-12-27,38.0
2016-12-28,30.0
2016-12-29,39.0
2016-12-30,44.0
2016-12-31,50.0
2017-01-01,50.0
2017-01-02,36.0
2017-01-03,17.0
2017-01-04,31.0
2017-01-05,13.0
2017-01-06,15.0
2017-01-07,38.0
2017-01-08,40.0
2017-01-09,23.0
2017-01-10,34.0
2017-01-11,35.0
2017-01-12,36.0
2017-01-13,5.0
2017-01-14,9.0
2017-01-15,20.0
2017-01-16,16.0
2017-01-17,18.0
2017-01-18,34.0
2017-01-19,44.0
2017-01-20,53.0
2017-01-21,53.0
2017-01-22,53.0
2017-01-23,64.0
2017-01-24,67.0
2017-01-25,68.0
2017-01-26,68.0
2017-01-27,70.0
2017-01-28,57.0
2017-01-29,49.0
2017-01-30,57.0
2017-01-31,49.0
2017-02-01,33.0
2017-02-02,14.0
2017-02-03,6.0
2017-02-04,9.0
2017-02-05,11.0
2017-02-06,6.0
2017-02-07,15.0
2017-02-08,10.0
2017-02-09,19.0
2017-02-10,22.0
2017-02-11,15.0
2017-02-12,23.0
2017-02-13,32.0
2017-02-14,45.0
2017-02-15,38.0
2017-02-16,33.0
2017-02-17,27.0
2017-02-18,21.0
2017-02-19,20.0
2017-02-20,23.0
2017-02-21,22.0
2017-02-22,21.0
2017-02-23,27.0
2017-02-24,14.0
2017-02-25,13.0
2017-02-26,21.0
2017-02-27,19.0
2017-02-28,5.0
2017-03-01,8.0
2017-03-02,15.0
2017-03-03,9.0
2017-03-04,3.0
2017-03-05,6.0
2017-03-06,8.0
2017-03-07,6.0
2017-03-08,16.0
2017-03-09,17.0
2017-03-10,10.0
2017-03-11,16.0
2017-03-12,20.0
2017-03-13,27.0
2017-03-14,30.0
2017-03-15,38.0
2017-03-16,32.0
2017-03-17,25.0
2017-03-18,24.0
2017-03-19,15.0
2017-03-20,12.0
2017-03-21,15.0
2017-03-22,10.0
2017-03-23,12.0
2017-03-24,14.0
2017-03-25,14.0
2017-03-26,7.0
2017-03-27,16.0
2017-03-28,19.0
2017-03-29,19.0
2017-03-30,19.0
2017-03-31,21.0
2017-04-01,12.0
2017-04-02,15.0
2017-04-03,21.0
2017-04-04,21.0
2017-04-05,18.0
2017-04-06,29.0
2017-04-07,26.0
2017-04-08,22.0
2017-04-09,17.0
2017-04-10,16.0
2017-04-11,28.0
2017-04-12,27.0
2017-04-13,21.0
2017-04-14,17.0
2017-04-15,16.0
2017-04-16,11.0
2017-04-17,11.0
2017-04-18,13.0
2017-04-19,12.0
2017-04-20,15.0
2017-04-21,22.0
2017-04-22,19.0
2017-04-23,17.0
2017-04-24,18.0
2017-04-25,25.0
2017-04-26,7.0
2017-04-27,9.0
2017-04-28,14.0
2017-04-29,16.0
2017-04-30,10.0
2017-05-01,4.0
2017-05-02,8.0
2017-05-03,9.0
2017-05-04,10.0
2017-05-05,13.0
2017-05-06,13.0
2017-05-07,8.0
2017-05-08,10.0
2017-05-09,12.0
2017-05-10,13.0
2017-05-11,16.0
2017-05-12,10.0
2017-05-13,13.0
2017-05-14,9.0
2017-05-15,11.0
2017-05-16,16.0
2017-05-17,19.0
2017-05-18,17.0
2017-05-19,6.0
2017-05-20,8.0
2017-05-21,11.0
2017-05-22,
2017-05-23,14.0
2017-05-24,17.0
2017-05-25,15.0
2017-05-26,19.0
2017-05-27,19.0
2017-05-28,20.0
2017-05-29,
2017-05-30,
2017-05-31,19.0
2017-06-01,17.0
2017-06-02,14.0
2017-06-03,16.0
2017-06-04,7.0
2017-06-05,11.0
2017-06-06,13.0
2017-06-07,
2017-06-08,15.0
2017-06-09,20.0
2017-06-10,16.0
2017-06-11,19.0
2017-06-12,25.0
2017-06-13,26.0
2017-06-14,19.0
2017-06-15,17.0
2017-06-16,21.0
2017-06-17,16.0
2017-06-18,17.0
2017-06-19,24.0
2017-06-20,25.0
2017-06-21,25.0
2017-06-22,23.0
2017-06-23,33.0
2017-06-24,26.0
2017-06-25,15.0
2017-06-26,18.0
2017-06-27,20.0
2017-06-28,9.0
2017-06-29,9.0
2017-06-30,9.0
2017-07-01,6.0
2017-07-02,8.0
2017-07-03,10.0
2017-07-04,15.0
2017-07-05,20.0
2017-07-06,20.0
2017-07-07,23.0
2017-07-08,27.0
2017-07-09,25.0
2017-07-10,17.0
2017-07-11,13.0
2017-07-12,16.0
2017-07-13,11.0
2017-07-14,12.0
2017-07-15,14.0
2017-07-16,15.0
2017-07-17,19.0
2017-07-18,24.0
2017-07-19,23.0
2017-07-20,15.0
2017-07-21,17.0
2017-07-22,15.0
2017-07-23,15.0
2017-07-24,10.0
2017-07-25,9.0
2017-07-26,12.0
2017-07-27,15.0
2017-07-28,15.0
2017-07-29,15.0
2017-07-30,16.0
2017-07-31,22.0
2017-08-01,29.0
2017-08-02,31.0
2017-08-03,38.0
2017-08-04,25.0
2017-08-05,14.0
2017-08-06,11.0
2017-08-07,16.0
2017-08-08,13.0
2017-08-09,11.0
2017-08-10,10.0
2017-08-11,6.0
2017-08-12,9.0
2017-08-13,14.0
2017-08-14,16.0
2017-08-15,16.0
2017-08-16,19.0
2017-08-17,23.0
2017-08-18,21.0
2017-08-19,11.0
2017-08-20,12.0
2017-08-21,14.0
2017-08-22,17.0
2017-08-23,20.0
2017-08-24,24.0
2017-08-25,23.0
2017-08-26,19.0
2017-08-27,20.0
2017-08-28,27.0
2017-08-29,30.0
2017-08-30,
2017-08-31,
2017-09-01,9.0
2017-09-02,9.0
2017-09-03,11.0
2017-09-04,15.0
2017-09-05,18.0
2017-09-06,15.0
2017-09-07,19.0
2017-09-08,25.0
2017-09-09,14.0
2017-09-10,9.0
2017-09-11,15.0
2017-09-12,11.0
2017-09-13,15.0
2017-09-14,13.0
2017-09-15,14.0
2017-09-16,15.0
2017-09-17,12.0
2017-09-18,10.0
2017-09-19,11.0
2017-09-20,13.0
2017-09-21,18.0
2017-09-22,22.0
2017-09-23,26.0
2017-09-24,22.0
2017-09-25,24.0
2017-09-26,23.0
2017-09-27,27.8
2017-09-28,30.4
2017-09-29,31.7
2017-09-30,29.5
2017-10-01,
2017-10-02,
2017-10-03,
2017-10-04,
2017-10-05,
2017-10-06,
2017-10-07,13.0
2017-10-08,10.0
2017-10-09,11.1
2017-10-10,14.7
2017-10-11,18.7
2017-10-12,21.0
2017-10-13,23.1
2017-10-14,23.5
2017-10-15,23.7
2017-10-16,27.6
2017-10-17,29.3
2017-10-18,31.8
2017-10-19,33.8
2017-10-20,32.5
2017-10-21,26.1
2017-10-22,6.2
2017-10-23,7.3
2017-10-24,12.2
2017-10-25,16.8
2017-10-26,20.2
2017-10-27,18.2
2017-10-28,11.8
2017-10-29,8.9
2017-10-30,12.1
2017-10-31,21.2
2017-11-01,24.3
2017-11-02,29.7
2017-11-03,30.3
2017-11-04,29.5
2017-11-05,10.8
2017-11-06,9.1
2017-11-07,14.9
2017-11-08,13.8
2017-11-09,12.2
2017-11-10,22.2
2017-11-11,17.3
2017-11-12,12.5
2017-11-13,3.1
2017-11-14,10.9
2017-11-15,22.4
2017-11-16,27.8
2017-11-17,34.8
2017-11-18,28.8
2017-11-19,18.9
2017-11-20,27.4
2017-11-21,30.0
2017-11-22,36.5
2017-11-23,24.9
2017-11-24,35.7
2017-11-25,6.7
2017-11-26,4.8
2017-11-27,14.6
2017-11-28,27.3
2017-11-29,13.0
2017-11-30,10.4
2017-12-01,7.0
2017-12-02,
2017-12-03,
2017-12-04,
2017-12-05,41.2
2017-12-06,36.0
2017-12-07,39.9
2017-12-08,9.7
2017-12-09,11.9
2017-12-10,4.7
2017-12-11,4.5
2017-12-12,10.8
2017-12-13,14.6
2017-12-14,7.7
2017-12-15,7.9
2017-12-16,7.0
2017-12-17,9.1
2017-12-18,16.9
2017-12-19,29.3
2017-12-20,25.0
2017-12-21,30.3
2017-12-22,39.2
2017-12-23,36.0
2017-12-24,22.1
2017-12-25,30.9
2017-12-26,21.8
2017-12-27,4.3
2017-12-28,7.3
2017-12-29,16.8
2017-12-30,17.9
2017-12-31,22.4
2018-01-01,5.4
2018-01-02,8.8
2018-01-03,10.3
2018-01-04,10.5
2018-01-05,19.7
2018-01-06,16.6
2018-01-07,24.0
2018-01-08,24.0
2018-01-09,9.7
2018-01-10,21.0
2018-01-11,22.1
2018-01-12,20.4
2018-01-13,24.7
2018-01-14,36.0
2018-01-15,26.1
2018-01-16,5.2
2018-01-17,6.9
2018-01-18,17.2
2018-01-19,14.9
2018-01-20,8.2
2018-01-21,8.9
2018-01-22,13.4
2018-01-23,13.3
2018-01-24,25.0
2018-01-25,17.5
2018-01-26,9.4
2018-01-27,9.3
2018-01-28,11.9
2018-01-29,18.6
2018-01-30,23.9
2018-01-31,16.1
2018-02-01,9.5
2018-02-02,12.3
2018-02-03,10.6
2018-02-04,17.7
2018-02-05,26.3
2018-02-06,32.9
2018-02-07,14.3
2018-02-08,20.4
2018-02-09,25.7
2018-02-10,9.6
2018-02-11,15.7
2018-02-12,7.6
2018-02-13,13.7
2018-02-14,16.2
2018-02-15,17.9
2018-02-16,23.1
2018-02-17,17.0
2018-02-18,7.0
2018-02-19,17.5
2018-02-20,22.8
2018-02-21,25.8
2018-02-22,40.7
2018-02-23,44.8
2018-02-24,45.2
2018-02-25,35.4
2018-02-26,22.8
2018-02-27,30.8
2018-02-28,44.9
2018-03-01,30.5
2018-03-02,37.2
2018-03-03,15.8
2018-03-04,13.8
2018-03-05,18.8
2018-03-06,20.0
2018-03-07,5.7
2018-03-08,7.1
2018-03-09,12.7
2018-03-10,5.4
2018-03-11,3.4
2018-03-12,3.4
2018-03-13,7.6
2018-03-14,10.9
2018-03-15,
2018-03-16,
2018-03-17,6.4
2018-03-18,11.3
2018-03-19,11.6
2018-03-20,25.7
2018-03-21,14.1
2018-03-22,21.3
2018-03-23,15.9
2018-03-24,16.7
2018-03-25,12.3
2018-03-26,23.7
2018-03-27,25.7
2018-03-28,15.2
2018-03-29,6.6
2018-03-30,9.4
2018-03-31,6.1
2018-04-01,5.5
2018-04-02,7.0
2018-04-03,49.8
2018-04-04,12.1
2018-04-05,7.7
2018-04-06,13.7
2018-04-07,19.0
2018-04-08,20.0
2018-04-09,
2018-04-10,4.1
2018-04-11,12.4
2018-04-12,4.2
2018-04-13,4.3
2018-04-14,10.1
2018-04-15,15.9
2018-04-16,14.9
2018-04-17,16.1
2018-04-18,20.8
2018-04-19,22.6
2018-04-20,21.7
2018-04-21,21.1
2018-04-22,22.2
2018-04-23,28.1
2018-04-24,24.2
2018-04-25,31.2
2018-04-26,16.7
2018-04-27,20.1
2018-04-28,24.1
2018-04-29,20.9
2018-04-30,5.2
2018-05-01,6.1
2018-05-02,13.3
2018-05-03,15.1
2018-05-04,22.1
2018-05-05,23.6
2018-05-06,23.3
2018-05-07,23.9
2018-05-08,13.0
2018-05-09,13.7
2018-05-10,12.8
2018-05-11,13.1
2018-05-12,13.5
2018-05-13,3.1
2018-05-14,4.4
2018-05-15,8.2
2018-05-16,13.8
2018-05-17,14.4
2018-05-18,14.5
2018-05-19,16.0
2018-05-20,12.8
2018-05-21,10.6
2018-05-22,9.0
2018-05-23,10.0
2018-05-24,10.5
2018-05-25,18.0
2018-05-26,20.6
2018-05-27,20.8
2018-05-28,15.3
2018-05-29,13.2
2018-05-30,14.4
2018-05-31,13.2
2018-06-01,12.1
2018-06-02,10.9
2018-06-03,10.0
2018-06-04,11.5
2018-06-05,11.6
2018-06-06,11.6
2018-06-07,7.4
2018-06-08,10.4
2018-06-09,11.5
2018-06-10,21.0
2018-06-11,16.0
2018-06-12,9.2
2018-06-13,10.1
2018-06-14,12.8
2018-06-15,14.2
2018-06-16,13.6
2018-06-17,12.3
2018-06-18,12.5
2018-06-19,13.7
2018-06-20,18.4
2018-06-21,21.3
2018-06-22,24.2
2018-06-23,20.2
2018-06-24,16.8
2018-06-25,16.9
2018-06-26,16.8
2018-06-27,18.7
2018-06-28,18.6
2018-06-29,19.0
2018-06-30,19.7
2018-07-01,21.5
2018-07-02,26.8
2018-07-03,21.9
2018-07-04,18.5
2018-07-05,11.1
2018-07-06,10.3
2018-07-07,14.5
2018-07-08,16.2
2018-07-09,18.9
2018-07-10,18.1
2018-07-11,17.6
2018-07-12,16.6
2018-07-13,18.1
2018-07-14,19.9
2018-07-15,13.8
2018-07-16,12.3
2018-07-17,15.7
2018-07-18,14.9
2018-07-19,16.5
2018-07-20,20.0
2018-07-21,10.0
2018-07-22,13.1
2018-07-23,16.8
2018-07-24,21.1
2018-07-25,22.8
2018-07-26,21.1
2018-07-27,21.7
2018-07-28,18.3
2018-07-29,16.8
2018-07-30,16.9
2018-07-31,21.0
2018-08-01,21.9
2018-08-02,21.2
2018-08-03,21.2
2018-08-04,22.2
2018-08-05,22.1
2018-08-06,14.8
2018-08-07,15.7
2018-08-08,18.2
2018-08-09,14.8
2018-08-10,7.7
2018-08-11,9.4
2018-08-12,12.6
2018-08-13,14.2
2018-08-14,7.7
2018-08-15,10.2
2018-08-16,13.3
2018-08-17,13.8
2018-08-18,13.9
2018-08-19,15.0
2018-08-20,
2018-08-21,17.7
2018-08-22,14.8
2018-08-23,14.2
2018-08-24,11.1
2018-08-25,12.6
2018-08-26,6.0
2018-08-27,10.7
2018-08-28,15.7
2018-08-29,17.8
2018-08-30,13.8
2018-08-31,15.9
2018-09-01,11.6
2018-09-02,11.4
2018-09-03,12.2
2018-09-04,14.5
2018-09-05,17.1
2018-09-06,18.9
2018-09-07,14.9
2018-09-08,13.7
2018-09-09,16.1
2018-09-10,15.9
2018-09-11,18.6
2018-09-12,23.9
2018-09-13,23.9
2018-09-14,15.8
2018-09-15,11.7
2018-09-16,16.3
2018-09-17,21.7
2018-09-18,22.0
2018-09-19,22.5
2018-09-20,23.3
2018-09-21,23.5
2018-09-22,11.0
2018-09-23,12.2
2018-09-24,9.9
2018-09-25,16.2
2018-09-26,21.3
2018-09-27,25.6
2018-09-28,24.8
2018-09-29,21.0
2018-09-30,19.9
2018-10-01,10.8
2018-10-02,9.7
2018-10-03,12.4
2018-10-04,16.4
2018-10-05,23.2
2018-10-06,16.9
2018-10-07,8.7
2018-10-08,12.8
2018-10-09,17.0
2018-10-10,23.2
2018-10-11,11.5
2018-10-12,15.0
2018-10-13,16.1
2018-10-14,19.3
2018-10-15,28.3
2018-10-16,23.9
2018-10-17,27.9
2018-10-18,31.0
2018-10-19,31.8
2018-10-20,36.9
2018-10-21,
2018-10-22,
2018-10-23,31.8
2018-10-24,26.3
2018-10-25,
2018-10-26,
2018-10-27,9.5
2018-10-28,5.1
2018-10-29,5.2
2018-10-30,5.5
2018-10-31,13.7
2018-11-01,8.1
2018-11-02,12.3
2018-11-03,14.8
2018-11-04,19.4
2018-11-05,28.2
2018-11-06,19.1
2018-11-07,14.6
2018-11-08,15.7
2018-11-09,22.3
2018-11-10,16.4
2018-11-11,3.5
2018-11-12,5.2
2018-11-13,15.4
2018-11-14,24.2
2018-11-15,24.7
2018-11-16,23.9
2018-11-17,22.1
2018-11-18,24.9
2018-11-19,30.3
2018-11-20,26.0
2018-11-21,33.1
2018-11-22,24.6
2018-11-23,28.0
2018-11-24,12.6
2018-11-25,15.8
2018-11-26,11.9
2018-11-27,9.3
2018-11-28,22.3
2018-11-29,31.7
2018-11-30,24.8
2018-12-01,20.4
2018-12-02,15.0
2018-12-03,22.5
2018-12-04,12.8
2018-12-05,21.5
2018-12-06,21.3
2018-12-07,17.9
2018-12-08,11.2
2018-12-09,9.3
2018-12-10,5.1
2018-12-11,
2018-12-12,20.8
2018-12-13,23.5
2018-12-14,33.0
2018-12-15,29.0
2018-12-16,21.0
2018-12-17,15.7
2018-12-18,16.2
2018-12-19,13.2
2018-12-20,23.6
2018-12-21,19.3
2018-12-22,20.8
2018-12-23,21.7
2018-12-24,15.0
2018-12-25,9.6
2018-12-26,21.1
2018-12-27,31.7
2018-12-28,34.1
2018-12-29,30.0
2018-12-30,21.1
2018-12-31,28.2
2019-01-01,31.3
2019-01-02,7.0
2019-01-03,11.2
2019-01-04,23.1
2019-01-05,25.5
2019-01-06,10.7
2019-01-07,14.2
2019-01-08,20.7
2019-01-09,6.7
2019-01-10,7.6
2019-01-11,17.1
2019-01-12,22.2
2019-01-13,13.4
2019-01-14,8.9
2019-01-15,17.1
2019-01-16,29.9
2019-01-17,29.6
2019-01-18,14.5
2019-01-19,25.3
2019-01-20,26.2
2019-01-21,36.3
2019-01-22,30.1
2019-01-23,20.9
2019-01-24,16.8
2019-01-25,23.6
2019-01-26,33.2
2019-01-27,19.2
2019-01-28,8.8
2019-01-29,10.1
2019-01-30,8.7
2019-01-31,8.3
2019-02-01,9.6
2019-02-02,9.5
2019-02-03,5.5
2019-02-04,17.6
2019-02-05,26.7
2019-02-06,35.1
2019-02-07,35.1
2019-02-08,22.0
2019-02-09,27.6
2019-02-10,15.1
2019-02-11,6.3
2019-02-12,14.7
2019-02-13,22.0
2019-02-14,26.3
2019-02-15,25.2
2019-02-16,22.7
2019-02-17,21.5
2019-02-18,29.7
2019-02-19,27.0
2019-02-20,30.7
2019-02-21,42.9
2019-02-22,34.9
2019-02-23,27.9
2019-02-24,33.7
2019-02-25,35.3
2019-02-26,33.8
2019-02-27,35.4
2019-02-28,30.1
2019-03-01,12.8
2019-03-02,11.6
2019-03-03,15.0
2019-03-04,12.8
2019-03-05,15.5
2019-03-06,13.8
2019-03-07,7.2
2019-03-08,11.7
2019-03-09,14.2
2019-03-10,16.5
2019-03-11,8.1
2019-03-12,10.6
2019-03-13,8.1
2019-03-14,7.8
2019-03-15,10.5
2019-03-16,13.5
2019-03-17,11.5
2019-03-18,5.7
2019-03-19,9.7
2019-03-20,16.4
2019-03-21,24.5
2019-03-22,25.9
2019-03-23,18.5
2019-03-24,22.4
2019-03-25,39.6
2019-03-26,10.1
2019-03-27,17.2
2019-03-28,23.6
2019-03-29,24.5
2019-03-30,19.6
2019-03-31,18.9
2019-04-01,23.3
2019-04-02,25.8
2019-04-03,8.7
2019-04-04,10.2
2019-04-05,14.5
2019-04-06,12.8
2019-04-07,4.7
2019-04-08,10.8
2019-04-09,
2019-04-10,
2019-04-11,26.2
2019-04-12,29.3
2019-04-13,26.9
2019-04-14,19.7
2019-04-15,18.8
2019-04-16,15.5
2019-04-17,14.6
2019-04-18,18.1
2019-04-19,20.4
2019-04-20,15.3
2019-04-21,17.5
2019-04-22,30.9
2019-04-23,26.6
2019-04-24,9.9
2019-04-25,8.7
2019-04-26,4.6
2019-04-27,5.9
2019-04-28,7.0
2019-04-29,8.9
2019-04-30,12.7
2019-05-01,14.7
2019-05-02,15.2
2019-05-03,9.6
2019-05-04,8.0
2019-05-05,6.4
2019-05-06,9.7
2019-05-07,14.2
2019-05-08,10.2
2019-05-09,8.3
2019-05-10,8.9
2019-05-11,6.1
2019-05-12,8.8
2019-05-13,11.8
2019-05-14,14.2
2019-05-15,12.0
2019-05-16,16.6
2019-05-17,18.5
2019-05-18,12.3
2019-05-19,8.0
2019-05-20,
2019-05-21,
2019-05-22,
2019-05-23,
2019-05-24,11.9
2019-05-25,13.1
2019-05-26,6.8
2019-05-27,8.3
2019-05-28,4.9
2019-05-29,5.8
2019-05-30,7.2
2019-05-31,10.5
2019-06-01,13.0
2019-06-02,13.2
2019-06-03,17.0
2019-06-04,20.2
2019-06-05,18.3
2019-06-06,7.5
2019-06-07,15.7
2019-06-08,7.2
2019-06-09,10.6
2019-06-10,9.2
2019-06-11,6.8
2019-06-12,5.5
2019-06-13,10.7
2019-06-14,17.2
2019-06-15,9.5
2019-06-16,9.0
2019-06-17,12.2
2019-06-18,18.1
2019-06-19,19.5
2019-06-20,15.7
2019-06-21,15.3
2019-06-22,10.9
2019-06-23,12.4
2019-06-24,18.8
2019-06-25,25.8
2019-06-26,38.0
2019-06-27,48.2
2019-06-28,40.8
2019-06-29,29.0
2019-06-30,29.7
2019-07-01,20.0
2019-07-02,14.8
2019-07-03,18.1
2019-07-04,24.8
2019-07-05,24.8
2019-07-06,23.1
2019-07-07,17.6
2019-07-08,18.6
2019-07-09,18.3
2019-07-10,16.7
2019-07-11,19.6
2019-07-12,17.3
2019-07-13,13.9
2019-07-14,13.5
2019-07-15,11.2
2019-07-16,16.2
2019-07-17,18.1
2019-07-18,19.9
2019-07-19,22.0
2019-07-20,24.0
2019-07-21,20.3
2019-07-22,23.7
2019-07-23,25.4
2019-07-24,
2019-07-25,37.4
2019-07-26,34.6
2019-07-27,
2019-07-28,
2019-07-29,
2019-07-30,15.2
2019-07-31,14.4
2019-08-01,16.4
2019-08-02,17.1
2019-08-03,15.1
2019-08-04,15.4
2019-08-05,18.9
2019-08-06,26.0
2019-08-07,16.4
2019-08-08,12.9
2019-08-09,19.2
2019-08-10,9.6
2019-08-11,11.8
2019-08-12,6.0
2019-08-13,7.8
2019-08-14,11.1
2019-08-15,9.3
2019-08-16,9.0
2019-08-17,14.0
2019-08-18,17.9
2019-08-19,10.4
2019-08-20,6.1
2019-08-21,7.3
2019-08-22,14.2
2019-08-23,17.3
2019-08-24,16.6
2019-08-25,13.2
2019-08-26,15.4
2019-08-27,20.6
2019-08-28,19.8
2019-08-29,22.6
2019-08-30,21.8
2019-08-31,12.7
2019-09-01,10.6
2019-09-02,10.9
2019-09-03,12.9
2019-09-04,15.7
2019-09-05,12.5
2019-09-06,12.1
2019-09-07,12.4
2019-09-08,5.7
2019-09-09,8.3
2019-09-10,11.6
2019-09-11,12.8
2019-09-12,14.5
2019-09-13,17.1
2019-09-14,19.5
2019-09-15,19.1
2019-09-16,26.0
2019-09-17,27.0
2019-09-18,23.6
2019-09-19,23.2
2019-09-20,26.6
2019-09-21,24.1
2019-09-22,17.6
2019-09-23,9.4
2019-09-24,15.2
2019-09-25,13.2
2019-09-26,10.3
2019-09-27,15.8
2019-09-28,10.7
2019-09-29,13.7
2019-09-30,15.3
2019-10-01,14.7
2019-10-02,9.0
2019-10-03,10.8
2019-10-04,15.6
2019-10-05,12.8
2019-10-06,10.0
2019-10-07,14.6
2019-10-08,15.6
2019-10-09,15.6
2019-10-10,12.5
2019-10-11,15.8
2019-10-12,19.6
2019-10-13,20.5
2019-10-14,25.7
2019-10-15,10.5
2019-10-16,12.2
2019-10-17,14.5
2019-10-18,16.1
2019-10-19,11.2
2019-10-20,14.8
2019-10-21,8.7
2019-10-22,11.9
2019-10-23,18.6
2019-10-24,12.1
2019-10-25,18.9
2019-10-26,17.6
2019-10-27,22.7
2019-10-28,30.0
2019-10-29,24.7
2019-10-30,23.5
2019-10-31,20.5
2019-11-01,11.4
2019-11-02,8.4
2019-11-03,
2019-11-04,
2019-11-05,
2019-11-06,12.9
2019-11-07,13.6
2019-11-08,11.5
2019-11-09,17.0
2019-11-10,13.4
2019-11-11,18.9
2019-11-12,19.7
2019-11-13,17.1
2019-11-14,15.1
2019-11-15,12.4
2019-11-16,19.3
2019-11-17,18.5
2019-11-18,15.4
2019-11-19,17.9
2019-11-20,21.6
2019-11-21,30.5
2019-11-22,24.5
2019-11-23,14.5
2019-11-24,17.8
2019-11-25,22.4
2019-11-26,28.4
2019-11-27,19.6
2019-11-28,11.5
2019-11-29,10.1
2019-11-30,11.9
2019-12-01,13.8
2019-12-02,
2019-12-03,
2019-12-04,21.3
2019-12-05,30.1
2019-12-06,30.4
2019-12-07,34.3
2019-12-08,24.5
2019-12-09,10.5
2019-12-10,14.4
2019-12-11,23.6
2019-12-12,9.3
2019-12-13,6.4
2019-12-14,19.1
2019-12-15,21.5
2019-12-16,13.4
2019-12-17,17.1
2019-12-18,35.3
2019-12-19,27.1
2019-12-20,7.0
2019-12-21,8.8
2019-12-22,7.7
2019-12-23,
2019-12-24,
2019-12-25,
2019-12-26,
2019-12-27,
2019-12-28,22.1
2019-12-29,18.4
2019-12-30,18.7
2019-12-31,28.9
